<?xml version="1.0" encoding="utf-8" standalone="no"?>
<!DOCTYPE svg PUBLIC "-//W3C//DTD SVG 1.1//EN"
  "http://www.w3.org/Graphics/SVG/1.1/DTD/svg11.dtd">
<!-- Created with matplotlib (http://matplotlib.org/) -->
<svg height="345pt" version="1.1" viewBox="0 0 460 345" width="460pt" xmlns="http://www.w3.org/2000/svg" xmlns:xlink="http://www.w3.org/1999/xlink">
 <defs>
  <style type="text/css">
*{stroke-linecap:butt;stroke-linejoin:round;}
  </style>
 </defs>
 <g id="figure_1">
  <g id="patch_1">
   <path d="M 0 345.6 
L 460.8 345.6 
L 460.8 0 
L 0 0 
z
" style="fill:#ffffff;"/>
  </g>
  <g id="axes_1">
   <g id="patch_2">
    <path d="M 57.6 307.584 
L 414.72 307.584 
L 414.72 41.472 
L 57.6 41.472 
z
" style="fill:#ffffff;"/>
   </g>
   <g id="matplotlib.axis_1">
    <g id="xtick_1">
     <g id="line2d_1">
      <defs>
       <path d="M 0 0 
L 0 3.5 
" id="m274fbfb75f" style="stroke:#000000;stroke-width:0.8;"/>
      </defs>
      <g>
       <use style="stroke:#000000;stroke-width:0.8;" x="87.36" xlink:href="#m274fbfb75f" y="307.584"/>
      </g>
     </g>
     <g id="text_1">
      <!-- 0.0 -->
      <defs>
       <path d="M 31.78125 66.40625 
Q 24.171875 66.40625 20.328125 58.90625 
Q 16.5 51.421875 16.5 36.375 
Q 16.5 21.390625 20.328125 13.890625 
Q 24.171875 6.390625 31.78125 6.390625 
Q 39.453125 6.390625 43.28125 13.890625 
Q 47.125 21.390625 47.125 36.375 
Q 47.125 51.421875 43.28125 58.90625 
Q 39.453125 66.40625 31.78125 66.40625 
z
M 31.78125 74.21875 
Q 44.046875 74.21875 50.515625 64.515625 
Q 56.984375 54.828125 56.984375 36.375 
Q 56.984375 17.96875 50.515625 8.265625 
Q 44.046875 -1.421875 31.78125 -1.421875 
Q 19.53125 -1.421875 13.0625 8.265625 
Q 6.59375 17.96875 6.59375 36.375 
Q 6.59375 54.828125 13.0625 64.515625 
Q 19.53125 74.21875 31.78125 74.21875 
z
" id="DejaVuSans-30"/>
       <path d="M 10.6875 12.40625 
L 21 12.40625 
L 21 0 
L 10.6875 0 
z
" id="DejaVuSans-2e"/>
      </defs>
      <g transform="translate(79.408438 322.182437)scale(0.1 -0.1)">
       <use xlink:href="#DejaVuSans-30"/>
       <use x="63.623047" xlink:href="#DejaVuSans-2e"/>
       <use x="95.410156" xlink:href="#DejaVuSans-30"/>
      </g>
     </g>
    </g>
    <g id="xtick_2">
     <g id="line2d_2">
      <g>
       <use style="stroke:#000000;stroke-width:0.8;" x="146.88" xlink:href="#m274fbfb75f" y="307.584"/>
      </g>
     </g>
     <g id="text_2">
      <!-- 0.2 -->
      <defs>
       <path d="M 19.1875 8.296875 
L 53.609375 8.296875 
L 53.609375 0 
L 7.328125 0 
L 7.328125 8.296875 
Q 12.9375 14.109375 22.625 23.890625 
Q 32.328125 33.6875 34.8125 36.53125 
Q 39.546875 41.84375 41.421875 45.53125 
Q 43.3125 49.21875 43.3125 52.78125 
Q 43.3125 58.59375 39.234375 62.25 
Q 35.15625 65.921875 28.609375 65.921875 
Q 23.96875 65.921875 18.8125 64.3125 
Q 13.671875 62.703125 7.8125 59.421875 
L 7.8125 69.390625 
Q 13.765625 71.78125 18.9375 73 
Q 24.125 74.21875 28.421875 74.21875 
Q 39.75 74.21875 46.484375 68.546875 
Q 53.21875 62.890625 53.21875 53.421875 
Q 53.21875 48.921875 51.53125 44.890625 
Q 49.859375 40.875 45.40625 35.40625 
Q 44.1875 33.984375 37.640625 27.21875 
Q 31.109375 20.453125 19.1875 8.296875 
z
" id="DejaVuSans-32"/>
      </defs>
      <g transform="translate(138.928438 322.182437)scale(0.1 -0.1)">
       <use xlink:href="#DejaVuSans-30"/>
       <use x="63.623047" xlink:href="#DejaVuSans-2e"/>
       <use x="95.410156" xlink:href="#DejaVuSans-32"/>
      </g>
     </g>
    </g>
    <g id="xtick_3">
     <g id="line2d_3">
      <g>
       <use style="stroke:#000000;stroke-width:0.8;" x="206.4" xlink:href="#m274fbfb75f" y="307.584"/>
      </g>
     </g>
     <g id="text_3">
      <!-- 0.4 -->
      <defs>
       <path d="M 37.796875 64.3125 
L 12.890625 25.390625 
L 37.796875 25.390625 
z
M 35.203125 72.90625 
L 47.609375 72.90625 
L 47.609375 25.390625 
L 58.015625 25.390625 
L 58.015625 17.1875 
L 47.609375 17.1875 
L 47.609375 0 
L 37.796875 0 
L 37.796875 17.1875 
L 4.890625 17.1875 
L 4.890625 26.703125 
z
" id="DejaVuSans-34"/>
      </defs>
      <g transform="translate(198.448438 322.182437)scale(0.1 -0.1)">
       <use xlink:href="#DejaVuSans-30"/>
       <use x="63.623047" xlink:href="#DejaVuSans-2e"/>
       <use x="95.410156" xlink:href="#DejaVuSans-34"/>
      </g>
     </g>
    </g>
    <g id="xtick_4">
     <g id="line2d_4">
      <g>
       <use style="stroke:#000000;stroke-width:0.8;" x="265.92" xlink:href="#m274fbfb75f" y="307.584"/>
      </g>
     </g>
     <g id="text_4">
      <!-- 0.6 -->
      <defs>
       <path d="M 33.015625 40.375 
Q 26.375 40.375 22.484375 35.828125 
Q 18.609375 31.296875 18.609375 23.390625 
Q 18.609375 15.53125 22.484375 10.953125 
Q 26.375 6.390625 33.015625 6.390625 
Q 39.65625 6.390625 43.53125 10.953125 
Q 47.40625 15.53125 47.40625 23.390625 
Q 47.40625 31.296875 43.53125 35.828125 
Q 39.65625 40.375 33.015625 40.375 
z
M 52.59375 71.296875 
L 52.59375 62.3125 
Q 48.875 64.0625 45.09375 64.984375 
Q 41.3125 65.921875 37.59375 65.921875 
Q 27.828125 65.921875 22.671875 59.328125 
Q 17.53125 52.734375 16.796875 39.40625 
Q 19.671875 43.65625 24.015625 45.921875 
Q 28.375 48.1875 33.59375 48.1875 
Q 44.578125 48.1875 50.953125 41.515625 
Q 57.328125 34.859375 57.328125 23.390625 
Q 57.328125 12.15625 50.6875 5.359375 
Q 44.046875 -1.421875 33.015625 -1.421875 
Q 20.359375 -1.421875 13.671875 8.265625 
Q 6.984375 17.96875 6.984375 36.375 
Q 6.984375 53.65625 15.1875 63.9375 
Q 23.390625 74.21875 37.203125 74.21875 
Q 40.921875 74.21875 44.703125 73.484375 
Q 48.484375 72.75 52.59375 71.296875 
z
" id="DejaVuSans-36"/>
      </defs>
      <g transform="translate(257.968437 322.182437)scale(0.1 -0.1)">
       <use xlink:href="#DejaVuSans-30"/>
       <use x="63.623047" xlink:href="#DejaVuSans-2e"/>
       <use x="95.410156" xlink:href="#DejaVuSans-36"/>
      </g>
     </g>
    </g>
    <g id="xtick_5">
     <g id="line2d_5">
      <g>
       <use style="stroke:#000000;stroke-width:0.8;" x="325.44" xlink:href="#m274fbfb75f" y="307.584"/>
      </g>
     </g>
     <g id="text_5">
      <!-- 0.8 -->
      <defs>
       <path d="M 31.78125 34.625 
Q 24.75 34.625 20.71875 30.859375 
Q 16.703125 27.09375 16.703125 20.515625 
Q 16.703125 13.921875 20.71875 10.15625 
Q 24.75 6.390625 31.78125 6.390625 
Q 38.8125 6.390625 42.859375 10.171875 
Q 46.921875 13.96875 46.921875 20.515625 
Q 46.921875 27.09375 42.890625 30.859375 
Q 38.875 34.625 31.78125 34.625 
z
M 21.921875 38.8125 
Q 15.578125 40.375 12.03125 44.71875 
Q 8.5 49.078125 8.5 55.328125 
Q 8.5 64.0625 14.71875 69.140625 
Q 20.953125 74.21875 31.78125 74.21875 
Q 42.671875 74.21875 48.875 69.140625 
Q 55.078125 64.0625 55.078125 55.328125 
Q 55.078125 49.078125 51.53125 44.71875 
Q 48 40.375 41.703125 38.8125 
Q 48.828125 37.15625 52.796875 32.3125 
Q 56.78125 27.484375 56.78125 20.515625 
Q 56.78125 9.90625 50.3125 4.234375 
Q 43.84375 -1.421875 31.78125 -1.421875 
Q 19.734375 -1.421875 13.25 4.234375 
Q 6.78125 9.90625 6.78125 20.515625 
Q 6.78125 27.484375 10.78125 32.3125 
Q 14.796875 37.15625 21.921875 38.8125 
z
M 18.3125 54.390625 
Q 18.3125 48.734375 21.84375 45.5625 
Q 25.390625 42.390625 31.78125 42.390625 
Q 38.140625 42.390625 41.71875 45.5625 
Q 45.3125 48.734375 45.3125 54.390625 
Q 45.3125 60.0625 41.71875 63.234375 
Q 38.140625 66.40625 31.78125 66.40625 
Q 25.390625 66.40625 21.84375 63.234375 
Q 18.3125 60.0625 18.3125 54.390625 
z
" id="DejaVuSans-38"/>
      </defs>
      <g transform="translate(317.488437 322.182437)scale(0.1 -0.1)">
       <use xlink:href="#DejaVuSans-30"/>
       <use x="63.623047" xlink:href="#DejaVuSans-2e"/>
       <use x="95.410156" xlink:href="#DejaVuSans-38"/>
      </g>
     </g>
    </g>
    <g id="xtick_6">
     <g id="line2d_6">
      <g>
       <use style="stroke:#000000;stroke-width:0.8;" x="384.96" xlink:href="#m274fbfb75f" y="307.584"/>
      </g>
     </g>
     <g id="text_6">
      <!-- 1.0 -->
      <defs>
       <path d="M 12.40625 8.296875 
L 28.515625 8.296875 
L 28.515625 63.921875 
L 10.984375 60.40625 
L 10.984375 69.390625 
L 28.421875 72.90625 
L 38.28125 72.90625 
L 38.28125 8.296875 
L 54.390625 8.296875 
L 54.390625 0 
L 12.40625 0 
z
" id="DejaVuSans-31"/>
      </defs>
      <g transform="translate(377.008438 322.182437)scale(0.1 -0.1)">
       <use xlink:href="#DejaVuSans-31"/>
       <use x="63.623047" xlink:href="#DejaVuSans-2e"/>
       <use x="95.410156" xlink:href="#DejaVuSans-30"/>
      </g>
     </g>
    </g>
    <g id="text_7">
     <!-- Message probabilities -->
     <defs>
      <path d="M 9.8125 72.90625 
L 24.515625 72.90625 
L 43.109375 23.296875 
L 61.8125 72.90625 
L 76.515625 72.90625 
L 76.515625 0 
L 66.890625 0 
L 66.890625 64.015625 
L 48.09375 14.015625 
L 38.1875 14.015625 
L 19.390625 64.015625 
L 19.390625 0 
L 9.8125 0 
z
" id="DejaVuSans-4d"/>
      <path d="M 56.203125 29.59375 
L 56.203125 25.203125 
L 14.890625 25.203125 
Q 15.484375 15.921875 20.484375 11.0625 
Q 25.484375 6.203125 34.421875 6.203125 
Q 39.59375 6.203125 44.453125 7.46875 
Q 49.3125 8.734375 54.109375 11.28125 
L 54.109375 2.78125 
Q 49.265625 0.734375 44.1875 -0.34375 
Q 39.109375 -1.421875 33.890625 -1.421875 
Q 20.796875 -1.421875 13.15625 6.1875 
Q 5.515625 13.8125 5.515625 26.8125 
Q 5.515625 40.234375 12.765625 48.109375 
Q 20.015625 56 32.328125 56 
Q 43.359375 56 49.78125 48.890625 
Q 56.203125 41.796875 56.203125 29.59375 
z
M 47.21875 32.234375 
Q 47.125 39.59375 43.09375 43.984375 
Q 39.0625 48.390625 32.421875 48.390625 
Q 24.90625 48.390625 20.390625 44.140625 
Q 15.875 39.890625 15.1875 32.171875 
z
" id="DejaVuSans-65"/>
      <path d="M 44.28125 53.078125 
L 44.28125 44.578125 
Q 40.484375 46.53125 36.375 47.5 
Q 32.28125 48.484375 27.875 48.484375 
Q 21.1875 48.484375 17.84375 46.4375 
Q 14.5 44.390625 14.5 40.28125 
Q 14.5 37.15625 16.890625 35.375 
Q 19.28125 33.59375 26.515625 31.984375 
L 29.59375 31.296875 
Q 39.15625 29.25 43.1875 25.515625 
Q 47.21875 21.78125 47.21875 15.09375 
Q 47.21875 7.46875 41.1875 3.015625 
Q 35.15625 -1.421875 24.609375 -1.421875 
Q 20.21875 -1.421875 15.453125 -0.5625 
Q 10.6875 0.296875 5.421875 2 
L 5.421875 11.28125 
Q 10.40625 8.6875 15.234375 7.390625 
Q 20.0625 6.109375 24.8125 6.109375 
Q 31.15625 6.109375 34.5625 8.28125 
Q 37.984375 10.453125 37.984375 14.40625 
Q 37.984375 18.0625 35.515625 20.015625 
Q 33.0625 21.96875 24.703125 23.78125 
L 21.578125 24.515625 
Q 13.234375 26.265625 9.515625 29.90625 
Q 5.8125 33.546875 5.8125 39.890625 
Q 5.8125 47.609375 11.28125 51.796875 
Q 16.75 56 26.8125 56 
Q 31.78125 56 36.171875 55.265625 
Q 40.578125 54.546875 44.28125 53.078125 
z
" id="DejaVuSans-73"/>
      <path d="M 34.28125 27.484375 
Q 23.390625 27.484375 19.1875 25 
Q 14.984375 22.515625 14.984375 16.5 
Q 14.984375 11.71875 18.140625 8.90625 
Q 21.296875 6.109375 26.703125 6.109375 
Q 34.1875 6.109375 38.703125 11.40625 
Q 43.21875 16.703125 43.21875 25.484375 
L 43.21875 27.484375 
z
M 52.203125 31.203125 
L 52.203125 0 
L 43.21875 0 
L 43.21875 8.296875 
Q 40.140625 3.328125 35.546875 0.953125 
Q 30.953125 -1.421875 24.3125 -1.421875 
Q 15.921875 -1.421875 10.953125 3.296875 
Q 6 8.015625 6 15.921875 
Q 6 25.140625 12.171875 29.828125 
Q 18.359375 34.515625 30.609375 34.515625 
L 43.21875 34.515625 
L 43.21875 35.40625 
Q 43.21875 41.609375 39.140625 45 
Q 35.0625 48.390625 27.6875 48.390625 
Q 23 48.390625 18.546875 47.265625 
Q 14.109375 46.140625 10.015625 43.890625 
L 10.015625 52.203125 
Q 14.9375 54.109375 19.578125 55.046875 
Q 24.21875 56 28.609375 56 
Q 40.484375 56 46.34375 49.84375 
Q 52.203125 43.703125 52.203125 31.203125 
z
" id="DejaVuSans-61"/>
      <path d="M 45.40625 27.984375 
Q 45.40625 37.75 41.375 43.109375 
Q 37.359375 48.484375 30.078125 48.484375 
Q 22.859375 48.484375 18.828125 43.109375 
Q 14.796875 37.75 14.796875 27.984375 
Q 14.796875 18.265625 18.828125 12.890625 
Q 22.859375 7.515625 30.078125 7.515625 
Q 37.359375 7.515625 41.375 12.890625 
Q 45.40625 18.265625 45.40625 27.984375 
z
M 54.390625 6.78125 
Q 54.390625 -7.171875 48.1875 -13.984375 
Q 42 -20.796875 29.203125 -20.796875 
Q 24.46875 -20.796875 20.265625 -20.09375 
Q 16.0625 -19.390625 12.109375 -17.921875 
L 12.109375 -9.1875 
Q 16.0625 -11.328125 19.921875 -12.34375 
Q 23.78125 -13.375 27.78125 -13.375 
Q 36.625 -13.375 41.015625 -8.765625 
Q 45.40625 -4.15625 45.40625 5.171875 
L 45.40625 9.625 
Q 42.625 4.78125 38.28125 2.390625 
Q 33.9375 0 27.875 0 
Q 17.828125 0 11.671875 7.65625 
Q 5.515625 15.328125 5.515625 27.984375 
Q 5.515625 40.671875 11.671875 48.328125 
Q 17.828125 56 27.875 56 
Q 33.9375 56 38.28125 53.609375 
Q 42.625 51.21875 45.40625 46.390625 
L 45.40625 54.6875 
L 54.390625 54.6875 
z
" id="DejaVuSans-67"/>
      <path id="DejaVuSans-20"/>
      <path d="M 18.109375 8.203125 
L 18.109375 -20.796875 
L 9.078125 -20.796875 
L 9.078125 54.6875 
L 18.109375 54.6875 
L 18.109375 46.390625 
Q 20.953125 51.265625 25.265625 53.625 
Q 29.59375 56 35.59375 56 
Q 45.5625 56 51.78125 48.09375 
Q 58.015625 40.1875 58.015625 27.296875 
Q 58.015625 14.40625 51.78125 6.484375 
Q 45.5625 -1.421875 35.59375 -1.421875 
Q 29.59375 -1.421875 25.265625 0.953125 
Q 20.953125 3.328125 18.109375 8.203125 
z
M 48.6875 27.296875 
Q 48.6875 37.203125 44.609375 42.84375 
Q 40.53125 48.484375 33.40625 48.484375 
Q 26.265625 48.484375 22.1875 42.84375 
Q 18.109375 37.203125 18.109375 27.296875 
Q 18.109375 17.390625 22.1875 11.75 
Q 26.265625 6.109375 33.40625 6.109375 
Q 40.53125 6.109375 44.609375 11.75 
Q 48.6875 17.390625 48.6875 27.296875 
z
" id="DejaVuSans-70"/>
      <path d="M 41.109375 46.296875 
Q 39.59375 47.171875 37.8125 47.578125 
Q 36.03125 48 33.890625 48 
Q 26.265625 48 22.1875 43.046875 
Q 18.109375 38.09375 18.109375 28.8125 
L 18.109375 0 
L 9.078125 0 
L 9.078125 54.6875 
L 18.109375 54.6875 
L 18.109375 46.1875 
Q 20.953125 51.171875 25.484375 53.578125 
Q 30.03125 56 36.53125 56 
Q 37.453125 56 38.578125 55.875 
Q 39.703125 55.765625 41.0625 55.515625 
z
" id="DejaVuSans-72"/>
      <path d="M 30.609375 48.390625 
Q 23.390625 48.390625 19.1875 42.75 
Q 14.984375 37.109375 14.984375 27.296875 
Q 14.984375 17.484375 19.15625 11.84375 
Q 23.34375 6.203125 30.609375 6.203125 
Q 37.796875 6.203125 41.984375 11.859375 
Q 46.1875 17.53125 46.1875 27.296875 
Q 46.1875 37.015625 41.984375 42.703125 
Q 37.796875 48.390625 30.609375 48.390625 
z
M 30.609375 56 
Q 42.328125 56 49.015625 48.375 
Q 55.71875 40.765625 55.71875 27.296875 
Q 55.71875 13.875 49.015625 6.21875 
Q 42.328125 -1.421875 30.609375 -1.421875 
Q 18.84375 -1.421875 12.171875 6.21875 
Q 5.515625 13.875 5.515625 27.296875 
Q 5.515625 40.765625 12.171875 48.375 
Q 18.84375 56 30.609375 56 
z
" id="DejaVuSans-6f"/>
      <path d="M 48.6875 27.296875 
Q 48.6875 37.203125 44.609375 42.84375 
Q 40.53125 48.484375 33.40625 48.484375 
Q 26.265625 48.484375 22.1875 42.84375 
Q 18.109375 37.203125 18.109375 27.296875 
Q 18.109375 17.390625 22.1875 11.75 
Q 26.265625 6.109375 33.40625 6.109375 
Q 40.53125 6.109375 44.609375 11.75 
Q 48.6875 17.390625 48.6875 27.296875 
z
M 18.109375 46.390625 
Q 20.953125 51.265625 25.265625 53.625 
Q 29.59375 56 35.59375 56 
Q 45.5625 56 51.78125 48.09375 
Q 58.015625 40.1875 58.015625 27.296875 
Q 58.015625 14.40625 51.78125 6.484375 
Q 45.5625 -1.421875 35.59375 -1.421875 
Q 29.59375 -1.421875 25.265625 0.953125 
Q 20.953125 3.328125 18.109375 8.203125 
L 18.109375 0 
L 9.078125 0 
L 9.078125 75.984375 
L 18.109375 75.984375 
z
" id="DejaVuSans-62"/>
      <path d="M 9.421875 54.6875 
L 18.40625 54.6875 
L 18.40625 0 
L 9.421875 0 
z
M 9.421875 75.984375 
L 18.40625 75.984375 
L 18.40625 64.59375 
L 9.421875 64.59375 
z
" id="DejaVuSans-69"/>
      <path d="M 9.421875 75.984375 
L 18.40625 75.984375 
L 18.40625 0 
L 9.421875 0 
z
" id="DejaVuSans-6c"/>
      <path d="M 18.3125 70.21875 
L 18.3125 54.6875 
L 36.8125 54.6875 
L 36.8125 47.703125 
L 18.3125 47.703125 
L 18.3125 18.015625 
Q 18.3125 11.328125 20.140625 9.421875 
Q 21.96875 7.515625 27.59375 7.515625 
L 36.8125 7.515625 
L 36.8125 0 
L 27.59375 0 
Q 17.1875 0 13.234375 3.875 
Q 9.28125 7.765625 9.28125 18.015625 
L 9.28125 47.703125 
L 2.6875 47.703125 
L 2.6875 54.6875 
L 9.28125 54.6875 
L 9.28125 70.21875 
z
" id="DejaVuSans-74"/>
     </defs>
     <g transform="translate(181.758437 335.860562)scale(0.1 -0.1)">
      <use xlink:href="#DejaVuSans-4d"/>
      <use x="86.279297" xlink:href="#DejaVuSans-65"/>
      <use x="147.802734" xlink:href="#DejaVuSans-73"/>
      <use x="199.902344" xlink:href="#DejaVuSans-73"/>
      <use x="252.001953" xlink:href="#DejaVuSans-61"/>
      <use x="313.28125" xlink:href="#DejaVuSans-67"/>
      <use x="376.757812" xlink:href="#DejaVuSans-65"/>
      <use x="438.28125" xlink:href="#DejaVuSans-20"/>
      <use x="470.068359" xlink:href="#DejaVuSans-70"/>
      <use x="533.544922" xlink:href="#DejaVuSans-72"/>
      <use x="574.626953" xlink:href="#DejaVuSans-6f"/>
      <use x="635.808594" xlink:href="#DejaVuSans-62"/>
      <use x="699.285156" xlink:href="#DejaVuSans-61"/>
      <use x="760.564453" xlink:href="#DejaVuSans-62"/>
      <use x="824.041016" xlink:href="#DejaVuSans-69"/>
      <use x="851.824219" xlink:href="#DejaVuSans-6c"/>
      <use x="879.607422" xlink:href="#DejaVuSans-69"/>
      <use x="907.390625" xlink:href="#DejaVuSans-74"/>
      <use x="946.599609" xlink:href="#DejaVuSans-69"/>
      <use x="974.382812" xlink:href="#DejaVuSans-65"/>
      <use x="1035.90625" xlink:href="#DejaVuSans-73"/>
     </g>
    </g>
   </g>
   <g id="matplotlib.axis_2">
    <g id="ytick_1">
     <g id="line2d_7">
      <defs>
       <path d="M 0 0 
L -3.5 0 
" id="ma938da62df" style="stroke:#000000;stroke-width:0.8;"/>
      </defs>
      <g>
       <use style="stroke:#000000;stroke-width:0.8;" x="57.6" xlink:href="#ma938da62df" y="285.408"/>
      </g>
     </g>
     <g id="text_8">
      <!-- 0.0 -->
      <g transform="translate(34.696875 289.207219)scale(0.1 -0.1)">
       <use xlink:href="#DejaVuSans-30"/>
       <use x="63.623047" xlink:href="#DejaVuSans-2e"/>
       <use x="95.410156" xlink:href="#DejaVuSans-30"/>
      </g>
     </g>
    </g>
    <g id="ytick_2">
     <g id="line2d_8">
      <g>
       <use style="stroke:#000000;stroke-width:0.8;" x="57.6" xlink:href="#ma938da62df" y="241.056"/>
      </g>
     </g>
     <g id="text_9">
      <!-- 0.2 -->
      <g transform="translate(34.696875 244.855219)scale(0.1 -0.1)">
       <use xlink:href="#DejaVuSans-30"/>
       <use x="63.623047" xlink:href="#DejaVuSans-2e"/>
       <use x="95.410156" xlink:href="#DejaVuSans-32"/>
      </g>
     </g>
    </g>
    <g id="ytick_3">
     <g id="line2d_9">
      <g>
       <use style="stroke:#000000;stroke-width:0.8;" x="57.6" xlink:href="#ma938da62df" y="196.704"/>
      </g>
     </g>
     <g id="text_10">
      <!-- 0.4 -->
      <g transform="translate(34.696875 200.503219)scale(0.1 -0.1)">
       <use xlink:href="#DejaVuSans-30"/>
       <use x="63.623047" xlink:href="#DejaVuSans-2e"/>
       <use x="95.410156" xlink:href="#DejaVuSans-34"/>
      </g>
     </g>
    </g>
    <g id="ytick_4">
     <g id="line2d_10">
      <g>
       <use style="stroke:#000000;stroke-width:0.8;" x="57.6" xlink:href="#ma938da62df" y="152.352"/>
      </g>
     </g>
     <g id="text_11">
      <!-- 0.6 -->
      <g transform="translate(34.696875 156.151219)scale(0.1 -0.1)">
       <use xlink:href="#DejaVuSans-30"/>
       <use x="63.623047" xlink:href="#DejaVuSans-2e"/>
       <use x="95.410156" xlink:href="#DejaVuSans-36"/>
      </g>
     </g>
    </g>
    <g id="ytick_5">
     <g id="line2d_11">
      <g>
       <use style="stroke:#000000;stroke-width:0.8;" x="57.6" xlink:href="#ma938da62df" y="108"/>
      </g>
     </g>
     <g id="text_12">
      <!-- 0.8 -->
      <g transform="translate(34.696875 111.799219)scale(0.1 -0.1)">
       <use xlink:href="#DejaVuSans-30"/>
       <use x="63.623047" xlink:href="#DejaVuSans-2e"/>
       <use x="95.410156" xlink:href="#DejaVuSans-38"/>
      </g>
     </g>
    </g>
    <g id="ytick_6">
     <g id="line2d_12">
      <g>
       <use style="stroke:#000000;stroke-width:0.8;" x="57.6" xlink:href="#ma938da62df" y="63.648"/>
      </g>
     </g>
     <g id="text_13">
      <!-- 1.0 -->
      <g transform="translate(34.696875 67.447219)scale(0.1 -0.1)">
       <use xlink:href="#DejaVuSans-31"/>
       <use x="63.623047" xlink:href="#DejaVuSans-2e"/>
       <use x="95.410156" xlink:href="#DejaVuSans-30"/>
      </g>
     </g>
    </g>
    <g id="text_14">
     <!-- Probability of error correction -->
     <defs>
      <path d="M 19.671875 64.796875 
L 19.671875 37.40625 
L 32.078125 37.40625 
Q 38.96875 37.40625 42.71875 40.96875 
Q 46.484375 44.53125 46.484375 51.125 
Q 46.484375 57.671875 42.71875 61.234375 
Q 38.96875 64.796875 32.078125 64.796875 
z
M 9.8125 72.90625 
L 32.078125 72.90625 
Q 44.34375 72.90625 50.609375 67.359375 
Q 56.890625 61.8125 56.890625 51.125 
Q 56.890625 40.328125 50.609375 34.8125 
Q 44.34375 29.296875 32.078125 29.296875 
L 19.671875 29.296875 
L 19.671875 0 
L 9.8125 0 
z
" id="DejaVuSans-50"/>
      <path d="M 32.171875 -5.078125 
Q 28.375 -14.84375 24.75 -17.8125 
Q 21.140625 -20.796875 15.09375 -20.796875 
L 7.90625 -20.796875 
L 7.90625 -13.28125 
L 13.1875 -13.28125 
Q 16.890625 -13.28125 18.9375 -11.515625 
Q 21 -9.765625 23.484375 -3.21875 
L 25.09375 0.875 
L 2.984375 54.6875 
L 12.5 54.6875 
L 29.59375 11.921875 
L 46.6875 54.6875 
L 56.203125 54.6875 
z
" id="DejaVuSans-79"/>
      <path d="M 37.109375 75.984375 
L 37.109375 68.5 
L 28.515625 68.5 
Q 23.6875 68.5 21.796875 66.546875 
Q 19.921875 64.59375 19.921875 59.515625 
L 19.921875 54.6875 
L 34.71875 54.6875 
L 34.71875 47.703125 
L 19.921875 47.703125 
L 19.921875 0 
L 10.890625 0 
L 10.890625 47.703125 
L 2.296875 47.703125 
L 2.296875 54.6875 
L 10.890625 54.6875 
L 10.890625 58.5 
Q 10.890625 67.625 15.140625 71.796875 
Q 19.390625 75.984375 28.609375 75.984375 
z
" id="DejaVuSans-66"/>
      <path d="M 48.78125 52.59375 
L 48.78125 44.1875 
Q 44.96875 46.296875 41.140625 47.34375 
Q 37.3125 48.390625 33.40625 48.390625 
Q 24.65625 48.390625 19.8125 42.84375 
Q 14.984375 37.3125 14.984375 27.296875 
Q 14.984375 17.28125 19.8125 11.734375 
Q 24.65625 6.203125 33.40625 6.203125 
Q 37.3125 6.203125 41.140625 7.25 
Q 44.96875 8.296875 48.78125 10.40625 
L 48.78125 2.09375 
Q 45.015625 0.34375 40.984375 -0.53125 
Q 36.96875 -1.421875 32.421875 -1.421875 
Q 20.0625 -1.421875 12.78125 6.34375 
Q 5.515625 14.109375 5.515625 27.296875 
Q 5.515625 40.671875 12.859375 48.328125 
Q 20.21875 56 33.015625 56 
Q 37.15625 56 41.109375 55.140625 
Q 45.0625 54.296875 48.78125 52.59375 
z
" id="DejaVuSans-63"/>
      <path d="M 54.890625 33.015625 
L 54.890625 0 
L 45.90625 0 
L 45.90625 32.71875 
Q 45.90625 40.484375 42.875 44.328125 
Q 39.84375 48.1875 33.796875 48.1875 
Q 26.515625 48.1875 22.3125 43.546875 
Q 18.109375 38.921875 18.109375 30.90625 
L 18.109375 0 
L 9.078125 0 
L 9.078125 54.6875 
L 18.109375 54.6875 
L 18.109375 46.1875 
Q 21.34375 51.125 25.703125 53.5625 
Q 30.078125 56 35.796875 56 
Q 45.21875 56 50.046875 50.171875 
Q 54.890625 44.34375 54.890625 33.015625 
z
" id="DejaVuSans-6e"/>
     </defs>
     <g transform="translate(28.617187 248.361594)rotate(-90)scale(0.1 -0.1)">
      <use xlink:href="#DejaVuSans-50"/>
      <use x="60.287109" xlink:href="#DejaVuSans-72"/>
      <use x="101.369141" xlink:href="#DejaVuSans-6f"/>
      <use x="162.550781" xlink:href="#DejaVuSans-62"/>
      <use x="226.027344" xlink:href="#DejaVuSans-61"/>
      <use x="287.306641" xlink:href="#DejaVuSans-62"/>
      <use x="350.783203" xlink:href="#DejaVuSans-69"/>
      <use x="378.566406" xlink:href="#DejaVuSans-6c"/>
      <use x="406.349609" xlink:href="#DejaVuSans-69"/>
      <use x="434.132812" xlink:href="#DejaVuSans-74"/>
      <use x="473.341797" xlink:href="#DejaVuSans-79"/>
      <use x="532.521484" xlink:href="#DejaVuSans-20"/>
      <use x="564.308594" xlink:href="#DejaVuSans-6f"/>
      <use x="625.490234" xlink:href="#DejaVuSans-66"/>
      <use x="660.695312" xlink:href="#DejaVuSans-20"/>
      <use x="692.482422" xlink:href="#DejaVuSans-65"/>
      <use x="754.005859" xlink:href="#DejaVuSans-72"/>
      <use x="795.103516" xlink:href="#DejaVuSans-72"/>
      <use x="836.185547" xlink:href="#DejaVuSans-6f"/>
      <use x="897.367188" xlink:href="#DejaVuSans-72"/>
      <use x="938.480469" xlink:href="#DejaVuSans-20"/>
      <use x="970.267578" xlink:href="#DejaVuSans-63"/>
      <use x="1025.248047" xlink:href="#DejaVuSans-6f"/>
      <use x="1086.429688" xlink:href="#DejaVuSans-72"/>
      <use x="1127.527344" xlink:href="#DejaVuSans-72"/>
      <use x="1168.609375" xlink:href="#DejaVuSans-65"/>
      <use x="1230.132812" xlink:href="#DejaVuSans-63"/>
      <use x="1285.113281" xlink:href="#DejaVuSans-74"/>
      <use x="1324.322266" xlink:href="#DejaVuSans-69"/>
      <use x="1352.105469" xlink:href="#DejaVuSans-6f"/>
      <use x="1413.287109" xlink:href="#DejaVuSans-6e"/>
     </g>
    </g>
   </g>
   <g id="line2d_13">
    <path clip-path="url(#p9a81a70afc)" d="M 309.242169 64.447575 
L 126.583597 67.375805 
L 101.593748 67.375805 
L 94.293818 77.331787 
L 89.876195 77.331787 
L 89.071502 102.975982 
L 87.614621 102.975982 
L 87.469793 151.415019 
L 87.392917 151.415019 
L 87.360392 266.036328 
L 87.360392 266.036328 
" style="fill:none;opacity:0.5;stroke:#ff0000;stroke-linecap:square;stroke-width:1.5;"/>
    <defs>
     <path d="M 0 3 
C 0.795609 3 1.55874 2.683901 2.12132 2.12132 
C 2.683901 1.55874 3 0.795609 3 0 
C 3 -0.795609 2.683901 -1.55874 2.12132 -2.12132 
C 1.55874 -2.683901 0.795609 -3 0 -3 
C -0.795609 -3 -1.55874 -2.683901 -2.12132 -2.12132 
C -2.683901 -1.55874 -3 -0.795609 -3 0 
C -3 0.795609 -2.683901 1.55874 -2.12132 2.12132 
C -1.55874 2.683901 -0.795609 3 0 3 
z
" id="me9a279d124" style="stroke:#ff0000;"/>
    </defs>
    <g clip-path="url(#p9a81a70afc)">
     <use style="fill:#ff0000;opacity:0.5;stroke:#ff0000;" x="309.242169" xlink:href="#me9a279d124" y="64.447575"/>
     <use style="fill:#ff0000;opacity:0.5;stroke:#ff0000;" x="126.583597" xlink:href="#me9a279d124" y="67.375805"/>
     <use style="fill:#ff0000;opacity:0.5;stroke:#ff0000;" x="101.593748" xlink:href="#me9a279d124" y="67.375805"/>
     <use style="fill:#ff0000;opacity:0.5;stroke:#ff0000;" x="94.293818" xlink:href="#me9a279d124" y="77.331787"/>
     <use style="fill:#ff0000;opacity:0.5;stroke:#ff0000;" x="91.329149" xlink:href="#me9a279d124" y="77.331787"/>
     <use style="fill:#ff0000;opacity:0.5;stroke:#ff0000;" x="89.876195" xlink:href="#me9a279d124" y="77.331787"/>
     <use style="fill:#ff0000;opacity:0.5;stroke:#ff0000;" x="89.071502" xlink:href="#me9a279d124" y="102.975982"/>
     <use style="fill:#ff0000;opacity:0.5;stroke:#ff0000;" x="88.585737" xlink:href="#me9a279d124" y="102.975982"/>
     <use style="fill:#ff0000;opacity:0.5;stroke:#ff0000;" x="88.273095" xlink:href="#me9a279d124" y="102.975982"/>
     <use style="fill:#ff0000;opacity:0.5;stroke:#ff0000;" x="88.061653" xlink:href="#me9a279d124" y="102.975982"/>
     <use style="fill:#ff0000;opacity:0.5;stroke:#ff0000;" x="87.912892" xlink:href="#me9a279d124" y="102.975982"/>
     <use style="fill:#ff0000;opacity:0.5;stroke:#ff0000;" x="87.804805" xlink:href="#me9a279d124" y="102.975982"/>
     <use style="fill:#ff0000;opacity:0.5;stroke:#ff0000;" x="87.724136" xlink:href="#me9a279d124" y="102.975982"/>
     <use style="fill:#ff0000;opacity:0.5;stroke:#ff0000;" x="87.662554" xlink:href="#me9a279d124" y="102.975982"/>
     <use style="fill:#ff0000;opacity:0.5;stroke:#ff0000;" x="87.614621" xlink:href="#me9a279d124" y="102.975982"/>
     <use style="fill:#ff0000;opacity:0.5;stroke:#ff0000;" x="87.576682" xlink:href="#me9a279d124" y="151.415019"/>
     <use style="fill:#ff0000;opacity:0.5;stroke:#ff0000;" x="87.546209" xlink:href="#me9a279d124" y="151.415019"/>
     <use style="fill:#ff0000;opacity:0.5;stroke:#ff0000;" x="87.521414" xlink:href="#me9a279d124" y="151.415019"/>
     <use style="fill:#ff0000;opacity:0.5;stroke:#ff0000;" x="87.501006" xlink:href="#me9a279d124" y="151.415019"/>
     <use style="fill:#ff0000;opacity:0.5;stroke:#ff0000;" x="87.484036" xlink:href="#me9a279d124" y="151.415019"/>
     <use style="fill:#ff0000;opacity:0.5;stroke:#ff0000;" x="87.469793" xlink:href="#me9a279d124" y="151.415019"/>
     <use style="fill:#ff0000;opacity:0.5;stroke:#ff0000;" x="87.457739" xlink:href="#me9a279d124" y="151.415019"/>
     <use style="fill:#ff0000;opacity:0.5;stroke:#ff0000;" x="87.447459" xlink:href="#me9a279d124" y="151.415019"/>
     <use style="fill:#ff0000;opacity:0.5;stroke:#ff0000;" x="87.438631" xlink:href="#me9a279d124" y="151.415019"/>
     <use style="fill:#ff0000;opacity:0.5;stroke:#ff0000;" x="87.431002" xlink:href="#me9a279d124" y="151.415019"/>
     <use style="fill:#ff0000;opacity:0.5;stroke:#ff0000;" x="87.424371" xlink:href="#me9a279d124" y="151.415019"/>
     <use style="fill:#ff0000;opacity:0.5;stroke:#ff0000;" x="87.418575" xlink:href="#me9a279d124" y="151.415019"/>
     <use style="fill:#ff0000;opacity:0.5;stroke:#ff0000;" x="87.413484" xlink:href="#me9a279d124" y="151.415019"/>
     <use style="fill:#ff0000;opacity:0.5;stroke:#ff0000;" x="87.408992" xlink:href="#me9a279d124" y="151.415019"/>
     <use style="fill:#ff0000;opacity:0.5;stroke:#ff0000;" x="87.405011" xlink:href="#me9a279d124" y="151.415019"/>
     <use style="fill:#ff0000;opacity:0.5;stroke:#ff0000;" x="87.401468" xlink:href="#me9a279d124" y="151.415019"/>
     <use style="fill:#ff0000;opacity:0.5;stroke:#ff0000;" x="87.398304" xlink:href="#me9a279d124" y="151.415019"/>
     <use style="fill:#ff0000;opacity:0.5;stroke:#ff0000;" x="87.395468" xlink:href="#me9a279d124" y="151.415019"/>
     <use style="fill:#ff0000;opacity:0.5;stroke:#ff0000;" x="87.392917" xlink:href="#me9a279d124" y="151.415019"/>
     <use style="fill:#ff0000;opacity:0.5;stroke:#ff0000;" x="87.390616" xlink:href="#me9a279d124" y="214.758374"/>
     <use style="fill:#ff0000;opacity:0.5;stroke:#ff0000;" x="87.388534" xlink:href="#me9a279d124" y="214.758374"/>
     <use style="fill:#ff0000;opacity:0.5;stroke:#ff0000;" x="87.386645" xlink:href="#me9a279d124" y="214.758374"/>
     <use style="fill:#ff0000;opacity:0.5;stroke:#ff0000;" x="87.384927" xlink:href="#me9a279d124" y="214.758374"/>
     <use style="fill:#ff0000;opacity:0.5;stroke:#ff0000;" x="87.383359" xlink:href="#me9a279d124" y="214.758374"/>
     <use style="fill:#ff0000;opacity:0.5;stroke:#ff0000;" x="87.381927" xlink:href="#me9a279d124" y="214.758374"/>
     <use style="fill:#ff0000;opacity:0.5;stroke:#ff0000;" x="87.380614" xlink:href="#me9a279d124" y="214.758374"/>
     <use style="fill:#ff0000;opacity:0.5;stroke:#ff0000;" x="87.379409" xlink:href="#me9a279d124" y="214.758374"/>
     <use style="fill:#ff0000;opacity:0.5;stroke:#ff0000;" x="87.3783" xlink:href="#me9a279d124" y="214.758374"/>
     <use style="fill:#ff0000;opacity:0.5;stroke:#ff0000;" x="87.377278" xlink:href="#me9a279d124" y="214.758374"/>
     <use style="fill:#ff0000;opacity:0.5;stroke:#ff0000;" x="87.376334" xlink:href="#me9a279d124" y="214.758374"/>
     <use style="fill:#ff0000;opacity:0.5;stroke:#ff0000;" x="87.375461" xlink:href="#me9a279d124" y="214.758374"/>
     <use style="fill:#ff0000;opacity:0.5;stroke:#ff0000;" x="87.374651" xlink:href="#me9a279d124" y="214.758374"/>
     <use style="fill:#ff0000;opacity:0.5;stroke:#ff0000;" x="87.3739" xlink:href="#me9a279d124" y="214.758374"/>
     <use style="fill:#ff0000;opacity:0.5;stroke:#ff0000;" x="87.373202" xlink:href="#me9a279d124" y="214.758374"/>
     <use style="fill:#ff0000;opacity:0.5;stroke:#ff0000;" x="87.372552" xlink:href="#me9a279d124" y="214.758374"/>
     <use style="fill:#ff0000;opacity:0.5;stroke:#ff0000;" x="87.371945" xlink:href="#me9a279d124" y="214.758374"/>
     <use style="fill:#ff0000;opacity:0.5;stroke:#ff0000;" x="87.371379" xlink:href="#me9a279d124" y="214.758374"/>
     <use style="fill:#ff0000;opacity:0.5;stroke:#ff0000;" x="87.37085" xlink:href="#me9a279d124" y="214.758374"/>
     <use style="fill:#ff0000;opacity:0.5;stroke:#ff0000;" x="87.370355" xlink:href="#me9a279d124" y="214.758374"/>
     <use style="fill:#ff0000;opacity:0.5;stroke:#ff0000;" x="87.36989" xlink:href="#me9a279d124" y="214.758374"/>
     <use style="fill:#ff0000;opacity:0.5;stroke:#ff0000;" x="87.369455" xlink:href="#me9a279d124" y="214.758374"/>
     <use style="fill:#ff0000;opacity:0.5;stroke:#ff0000;" x="87.369046" xlink:href="#me9a279d124" y="214.758374"/>
     <use style="fill:#ff0000;opacity:0.5;stroke:#ff0000;" x="87.368661" xlink:href="#me9a279d124" y="214.758374"/>
     <use style="fill:#ff0000;opacity:0.5;stroke:#ff0000;" x="87.368298" xlink:href="#me9a279d124" y="214.758374"/>
     <use style="fill:#ff0000;opacity:0.5;stroke:#ff0000;" x="87.367957" xlink:href="#me9a279d124" y="214.758374"/>
     <use style="fill:#ff0000;opacity:0.5;stroke:#ff0000;" x="87.367635" xlink:href="#me9a279d124" y="214.758374"/>
     <use style="fill:#ff0000;opacity:0.5;stroke:#ff0000;" x="87.367331" xlink:href="#me9a279d124" y="214.758374"/>
     <use style="fill:#ff0000;opacity:0.5;stroke:#ff0000;" x="87.367043" xlink:href="#me9a279d124" y="214.758374"/>
     <use style="fill:#ff0000;opacity:0.5;stroke:#ff0000;" x="87.366771" xlink:href="#me9a279d124" y="214.758374"/>
     <use style="fill:#ff0000;opacity:0.5;stroke:#ff0000;" x="87.366514" xlink:href="#me9a279d124" y="214.758374"/>
     <use style="fill:#ff0000;opacity:0.5;stroke:#ff0000;" x="87.36627" xlink:href="#me9a279d124" y="214.758374"/>
     <use style="fill:#ff0000;opacity:0.5;stroke:#ff0000;" x="87.366039" xlink:href="#me9a279d124" y="214.758374"/>
     <use style="fill:#ff0000;opacity:0.5;stroke:#ff0000;" x="87.365819" xlink:href="#me9a279d124" y="214.758374"/>
     <use style="fill:#ff0000;opacity:0.5;stroke:#ff0000;" x="87.36561" xlink:href="#me9a279d124" y="214.758374"/>
     <use style="fill:#ff0000;opacity:0.5;stroke:#ff0000;" x="87.365412" xlink:href="#me9a279d124" y="214.758374"/>
     <use style="fill:#ff0000;opacity:0.5;stroke:#ff0000;" x="87.365224" xlink:href="#me9a279d124" y="214.758374"/>
     <use style="fill:#ff0000;opacity:0.5;stroke:#ff0000;" x="87.365044" xlink:href="#me9a279d124" y="214.758374"/>
     <use style="fill:#ff0000;opacity:0.5;stroke:#ff0000;" x="87.364873" xlink:href="#me9a279d124" y="214.758374"/>
     <use style="fill:#ff0000;opacity:0.5;stroke:#ff0000;" x="87.36471" xlink:href="#me9a279d124" y="214.758374"/>
     <use style="fill:#ff0000;opacity:0.5;stroke:#ff0000;" x="87.364555" xlink:href="#me9a279d124" y="214.758374"/>
     <use style="fill:#ff0000;opacity:0.5;stroke:#ff0000;" x="87.364406" xlink:href="#me9a279d124" y="214.758374"/>
     <use style="fill:#ff0000;opacity:0.5;stroke:#ff0000;" x="87.364265" xlink:href="#me9a279d124" y="214.758374"/>
     <use style="fill:#ff0000;opacity:0.5;stroke:#ff0000;" x="87.364129" xlink:href="#me9a279d124" y="214.758374"/>
     <use style="fill:#ff0000;opacity:0.5;stroke:#ff0000;" x="87.364" xlink:href="#me9a279d124" y="214.758374"/>
     <use style="fill:#ff0000;opacity:0.5;stroke:#ff0000;" x="87.363876" xlink:href="#me9a279d124" y="214.758374"/>
     <use style="fill:#ff0000;opacity:0.5;stroke:#ff0000;" x="87.363758" xlink:href="#me9a279d124" y="214.758374"/>
     <use style="fill:#ff0000;opacity:0.5;stroke:#ff0000;" x="87.363644" xlink:href="#me9a279d124" y="214.758374"/>
     <use style="fill:#ff0000;opacity:0.5;stroke:#ff0000;" x="87.363535" xlink:href="#me9a279d124" y="214.758374"/>
     <use style="fill:#ff0000;opacity:0.5;stroke:#ff0000;" x="87.363431" xlink:href="#me9a279d124" y="214.758374"/>
     <use style="fill:#ff0000;opacity:0.5;stroke:#ff0000;" x="87.363331" xlink:href="#me9a279d124" y="214.758374"/>
     <use style="fill:#ff0000;opacity:0.5;stroke:#ff0000;" x="87.363235" xlink:href="#me9a279d124" y="266.036328"/>
     <use style="fill:#ff0000;opacity:0.5;stroke:#ff0000;" x="87.363143" xlink:href="#me9a279d124" y="266.036328"/>
     <use style="fill:#ff0000;opacity:0.5;stroke:#ff0000;" x="87.363054" xlink:href="#me9a279d124" y="266.036328"/>
     <use style="fill:#ff0000;opacity:0.5;stroke:#ff0000;" x="87.362969" xlink:href="#me9a279d124" y="266.036328"/>
     <use style="fill:#ff0000;opacity:0.5;stroke:#ff0000;" x="87.362887" xlink:href="#me9a279d124" y="266.036328"/>
     <use style="fill:#ff0000;opacity:0.5;stroke:#ff0000;" x="87.362809" xlink:href="#me9a279d124" y="266.036328"/>
     <use style="fill:#ff0000;opacity:0.5;stroke:#ff0000;" x="87.362733" xlink:href="#me9a279d124" y="266.036328"/>
     <use style="fill:#ff0000;opacity:0.5;stroke:#ff0000;" x="87.36266" xlink:href="#me9a279d124" y="266.036328"/>
     <use style="fill:#ff0000;opacity:0.5;stroke:#ff0000;" x="87.36259" xlink:href="#me9a279d124" y="266.036328"/>
     <use style="fill:#ff0000;opacity:0.5;stroke:#ff0000;" x="87.362522" xlink:href="#me9a279d124" y="266.036328"/>
     <use style="fill:#ff0000;opacity:0.5;stroke:#ff0000;" x="87.362457" xlink:href="#me9a279d124" y="266.036328"/>
     <use style="fill:#ff0000;opacity:0.5;stroke:#ff0000;" x="87.362394" xlink:href="#me9a279d124" y="266.036328"/>
     <use style="fill:#ff0000;opacity:0.5;stroke:#ff0000;" x="87.362334" xlink:href="#me9a279d124" y="266.036328"/>
     <use style="fill:#ff0000;opacity:0.5;stroke:#ff0000;" x="87.362275" xlink:href="#me9a279d124" y="266.036328"/>
     <use style="fill:#ff0000;opacity:0.5;stroke:#ff0000;" x="87.362219" xlink:href="#me9a279d124" y="266.036328"/>
     <use style="fill:#ff0000;opacity:0.5;stroke:#ff0000;" x="87.362164" xlink:href="#me9a279d124" y="266.036328"/>
     <use style="fill:#ff0000;opacity:0.5;stroke:#ff0000;" x="87.362112" xlink:href="#me9a279d124" y="266.036328"/>
     <use style="fill:#ff0000;opacity:0.5;stroke:#ff0000;" x="87.362061" xlink:href="#me9a279d124" y="266.036328"/>
     <use style="fill:#ff0000;opacity:0.5;stroke:#ff0000;" x="87.362012" xlink:href="#me9a279d124" y="266.036328"/>
     <use style="fill:#ff0000;opacity:0.5;stroke:#ff0000;" x="87.361964" xlink:href="#me9a279d124" y="266.036328"/>
     <use style="fill:#ff0000;opacity:0.5;stroke:#ff0000;" x="87.361918" xlink:href="#me9a279d124" y="266.036328"/>
     <use style="fill:#ff0000;opacity:0.5;stroke:#ff0000;" x="87.361874" xlink:href="#me9a279d124" y="266.036328"/>
     <use style="fill:#ff0000;opacity:0.5;stroke:#ff0000;" x="87.36183" xlink:href="#me9a279d124" y="266.036328"/>
     <use style="fill:#ff0000;opacity:0.5;stroke:#ff0000;" x="87.361789" xlink:href="#me9a279d124" y="266.036328"/>
     <use style="fill:#ff0000;opacity:0.5;stroke:#ff0000;" x="87.361748" xlink:href="#me9a279d124" y="266.036328"/>
     <use style="fill:#ff0000;opacity:0.5;stroke:#ff0000;" x="87.361709" xlink:href="#me9a279d124" y="266.036328"/>
     <use style="fill:#ff0000;opacity:0.5;stroke:#ff0000;" x="87.361671" xlink:href="#me9a279d124" y="266.036328"/>
     <use style="fill:#ff0000;opacity:0.5;stroke:#ff0000;" x="87.361635" xlink:href="#me9a279d124" y="266.036328"/>
     <use style="fill:#ff0000;opacity:0.5;stroke:#ff0000;" x="87.361599" xlink:href="#me9a279d124" y="266.036328"/>
     <use style="fill:#ff0000;opacity:0.5;stroke:#ff0000;" x="87.361565" xlink:href="#me9a279d124" y="266.036328"/>
     <use style="fill:#ff0000;opacity:0.5;stroke:#ff0000;" x="87.361531" xlink:href="#me9a279d124" y="266.036328"/>
     <use style="fill:#ff0000;opacity:0.5;stroke:#ff0000;" x="87.361499" xlink:href="#me9a279d124" y="266.036328"/>
     <use style="fill:#ff0000;opacity:0.5;stroke:#ff0000;" x="87.361467" xlink:href="#me9a279d124" y="266.036328"/>
     <use style="fill:#ff0000;opacity:0.5;stroke:#ff0000;" x="87.361436" xlink:href="#me9a279d124" y="266.036328"/>
     <use style="fill:#ff0000;opacity:0.5;stroke:#ff0000;" x="87.361407" xlink:href="#me9a279d124" y="266.036328"/>
     <use style="fill:#ff0000;opacity:0.5;stroke:#ff0000;" x="87.361378" xlink:href="#me9a279d124" y="266.036328"/>
     <use style="fill:#ff0000;opacity:0.5;stroke:#ff0000;" x="87.36135" xlink:href="#me9a279d124" y="266.036328"/>
     <use style="fill:#ff0000;opacity:0.5;stroke:#ff0000;" x="87.361322" xlink:href="#me9a279d124" y="266.036328"/>
     <use style="fill:#ff0000;opacity:0.5;stroke:#ff0000;" x="87.361296" xlink:href="#me9a279d124" y="266.036328"/>
     <use style="fill:#ff0000;opacity:0.5;stroke:#ff0000;" x="87.36127" xlink:href="#me9a279d124" y="266.036328"/>
     <use style="fill:#ff0000;opacity:0.5;stroke:#ff0000;" x="87.361245" xlink:href="#me9a279d124" y="266.036328"/>
     <use style="fill:#ff0000;opacity:0.5;stroke:#ff0000;" x="87.361221" xlink:href="#me9a279d124" y="266.036328"/>
     <use style="fill:#ff0000;opacity:0.5;stroke:#ff0000;" x="87.361197" xlink:href="#me9a279d124" y="266.036328"/>
     <use style="fill:#ff0000;opacity:0.5;stroke:#ff0000;" x="87.361174" xlink:href="#me9a279d124" y="266.036328"/>
     <use style="fill:#ff0000;opacity:0.5;stroke:#ff0000;" x="87.361152" xlink:href="#me9a279d124" y="266.036328"/>
     <use style="fill:#ff0000;opacity:0.5;stroke:#ff0000;" x="87.36113" xlink:href="#me9a279d124" y="266.036328"/>
     <use style="fill:#ff0000;opacity:0.5;stroke:#ff0000;" x="87.361108" xlink:href="#me9a279d124" y="266.036328"/>
     <use style="fill:#ff0000;opacity:0.5;stroke:#ff0000;" x="87.361088" xlink:href="#me9a279d124" y="266.036328"/>
     <use style="fill:#ff0000;opacity:0.5;stroke:#ff0000;" x="87.361067" xlink:href="#me9a279d124" y="266.036328"/>
     <use style="fill:#ff0000;opacity:0.5;stroke:#ff0000;" x="87.361048" xlink:href="#me9a279d124" y="266.036328"/>
     <use style="fill:#ff0000;opacity:0.5;stroke:#ff0000;" x="87.361029" xlink:href="#me9a279d124" y="266.036328"/>
     <use style="fill:#ff0000;opacity:0.5;stroke:#ff0000;" x="87.36101" xlink:href="#me9a279d124" y="266.036328"/>
     <use style="fill:#ff0000;opacity:0.5;stroke:#ff0000;" x="87.360992" xlink:href="#me9a279d124" y="266.036328"/>
     <use style="fill:#ff0000;opacity:0.5;stroke:#ff0000;" x="87.360974" xlink:href="#me9a279d124" y="266.036328"/>
     <use style="fill:#ff0000;opacity:0.5;stroke:#ff0000;" x="87.360957" xlink:href="#me9a279d124" y="266.036328"/>
     <use style="fill:#ff0000;opacity:0.5;stroke:#ff0000;" x="87.36094" xlink:href="#me9a279d124" y="266.036328"/>
     <use style="fill:#ff0000;opacity:0.5;stroke:#ff0000;" x="87.360923" xlink:href="#me9a279d124" y="266.036328"/>
     <use style="fill:#ff0000;opacity:0.5;stroke:#ff0000;" x="87.360907" xlink:href="#me9a279d124" y="266.036328"/>
     <use style="fill:#ff0000;opacity:0.5;stroke:#ff0000;" x="87.360892" xlink:href="#me9a279d124" y="266.036328"/>
     <use style="fill:#ff0000;opacity:0.5;stroke:#ff0000;" x="87.360876" xlink:href="#me9a279d124" y="266.036328"/>
     <use style="fill:#ff0000;opacity:0.5;stroke:#ff0000;" x="87.360861" xlink:href="#me9a279d124" y="266.036328"/>
     <use style="fill:#ff0000;opacity:0.5;stroke:#ff0000;" x="87.360847" xlink:href="#me9a279d124" y="266.036328"/>
     <use style="fill:#ff0000;opacity:0.5;stroke:#ff0000;" x="87.360833" xlink:href="#me9a279d124" y="266.036328"/>
     <use style="fill:#ff0000;opacity:0.5;stroke:#ff0000;" x="87.360819" xlink:href="#me9a279d124" y="266.036328"/>
     <use style="fill:#ff0000;opacity:0.5;stroke:#ff0000;" x="87.360805" xlink:href="#me9a279d124" y="266.036328"/>
     <use style="fill:#ff0000;opacity:0.5;stroke:#ff0000;" x="87.360792" xlink:href="#me9a279d124" y="266.036328"/>
     <use style="fill:#ff0000;opacity:0.5;stroke:#ff0000;" x="87.360779" xlink:href="#me9a279d124" y="266.036328"/>
     <use style="fill:#ff0000;opacity:0.5;stroke:#ff0000;" x="87.360766" xlink:href="#me9a279d124" y="266.036328"/>
     <use style="fill:#ff0000;opacity:0.5;stroke:#ff0000;" x="87.360754" xlink:href="#me9a279d124" y="266.036328"/>
     <use style="fill:#ff0000;opacity:0.5;stroke:#ff0000;" x="87.360742" xlink:href="#me9a279d124" y="266.036328"/>
     <use style="fill:#ff0000;opacity:0.5;stroke:#ff0000;" x="87.36073" xlink:href="#me9a279d124" y="266.036328"/>
     <use style="fill:#ff0000;opacity:0.5;stroke:#ff0000;" x="87.360718" xlink:href="#me9a279d124" y="266.036328"/>
     <use style="fill:#ff0000;opacity:0.5;stroke:#ff0000;" x="87.360707" xlink:href="#me9a279d124" y="266.036328"/>
     <use style="fill:#ff0000;opacity:0.5;stroke:#ff0000;" x="87.360696" xlink:href="#me9a279d124" y="266.036328"/>
     <use style="fill:#ff0000;opacity:0.5;stroke:#ff0000;" x="87.360685" xlink:href="#me9a279d124" y="266.036328"/>
     <use style="fill:#ff0000;opacity:0.5;stroke:#ff0000;" x="87.360675" xlink:href="#me9a279d124" y="266.036328"/>
     <use style="fill:#ff0000;opacity:0.5;stroke:#ff0000;" x="87.360664" xlink:href="#me9a279d124" y="266.036328"/>
     <use style="fill:#ff0000;opacity:0.5;stroke:#ff0000;" x="87.360654" xlink:href="#me9a279d124" y="266.036328"/>
     <use style="fill:#ff0000;opacity:0.5;stroke:#ff0000;" x="87.360644" xlink:href="#me9a279d124" y="266.036328"/>
     <use style="fill:#ff0000;opacity:0.5;stroke:#ff0000;" x="87.360634" xlink:href="#me9a279d124" y="266.036328"/>
     <use style="fill:#ff0000;opacity:0.5;stroke:#ff0000;" x="87.360625" xlink:href="#me9a279d124" y="266.036328"/>
     <use style="fill:#ff0000;opacity:0.5;stroke:#ff0000;" x="87.360616" xlink:href="#me9a279d124" y="266.036328"/>
     <use style="fill:#ff0000;opacity:0.5;stroke:#ff0000;" x="87.360607" xlink:href="#me9a279d124" y="266.036328"/>
     <use style="fill:#ff0000;opacity:0.5;stroke:#ff0000;" x="87.360598" xlink:href="#me9a279d124" y="266.036328"/>
     <use style="fill:#ff0000;opacity:0.5;stroke:#ff0000;" x="87.360589" xlink:href="#me9a279d124" y="266.036328"/>
     <use style="fill:#ff0000;opacity:0.5;stroke:#ff0000;" x="87.36058" xlink:href="#me9a279d124" y="266.036328"/>
     <use style="fill:#ff0000;opacity:0.5;stroke:#ff0000;" x="87.360572" xlink:href="#me9a279d124" y="266.036328"/>
     <use style="fill:#ff0000;opacity:0.5;stroke:#ff0000;" x="87.360564" xlink:href="#me9a279d124" y="266.036328"/>
     <use style="fill:#ff0000;opacity:0.5;stroke:#ff0000;" x="87.360556" xlink:href="#me9a279d124" y="266.036328"/>
     <use style="fill:#ff0000;opacity:0.5;stroke:#ff0000;" x="87.360548" xlink:href="#me9a279d124" y="266.036328"/>
     <use style="fill:#ff0000;opacity:0.5;stroke:#ff0000;" x="87.36054" xlink:href="#me9a279d124" y="266.036328"/>
     <use style="fill:#ff0000;opacity:0.5;stroke:#ff0000;" x="87.360532" xlink:href="#me9a279d124" y="266.036328"/>
     <use style="fill:#ff0000;opacity:0.5;stroke:#ff0000;" x="87.360525" xlink:href="#me9a279d124" y="266.036328"/>
     <use style="fill:#ff0000;opacity:0.5;stroke:#ff0000;" x="87.360518" xlink:href="#me9a279d124" y="266.036328"/>
     <use style="fill:#ff0000;opacity:0.5;stroke:#ff0000;" x="87.36051" xlink:href="#me9a279d124" y="266.036328"/>
     <use style="fill:#ff0000;opacity:0.5;stroke:#ff0000;" x="87.360503" xlink:href="#me9a279d124" y="266.036328"/>
     <use style="fill:#ff0000;opacity:0.5;stroke:#ff0000;" x="87.360497" xlink:href="#me9a279d124" y="266.036328"/>
     <use style="fill:#ff0000;opacity:0.5;stroke:#ff0000;" x="87.36049" xlink:href="#me9a279d124" y="266.036328"/>
     <use style="fill:#ff0000;opacity:0.5;stroke:#ff0000;" x="87.360483" xlink:href="#me9a279d124" y="266.036328"/>
     <use style="fill:#ff0000;opacity:0.5;stroke:#ff0000;" x="87.360477" xlink:href="#me9a279d124" y="266.036328"/>
     <use style="fill:#ff0000;opacity:0.5;stroke:#ff0000;" x="87.36047" xlink:href="#me9a279d124" y="266.036328"/>
     <use style="fill:#ff0000;opacity:0.5;stroke:#ff0000;" x="87.360464" xlink:href="#me9a279d124" y="266.036328"/>
     <use style="fill:#ff0000;opacity:0.5;stroke:#ff0000;" x="87.360458" xlink:href="#me9a279d124" y="266.036328"/>
     <use style="fill:#ff0000;opacity:0.5;stroke:#ff0000;" x="87.360452" xlink:href="#me9a279d124" y="266.036328"/>
     <use style="fill:#ff0000;opacity:0.5;stroke:#ff0000;" x="87.360446" xlink:href="#me9a279d124" y="266.036328"/>
     <use style="fill:#ff0000;opacity:0.5;stroke:#ff0000;" x="87.36044" xlink:href="#me9a279d124" y="266.036328"/>
     <use style="fill:#ff0000;opacity:0.5;stroke:#ff0000;" x="87.360434" xlink:href="#me9a279d124" y="266.036328"/>
     <use style="fill:#ff0000;opacity:0.5;stroke:#ff0000;" x="87.360429" xlink:href="#me9a279d124" y="266.036328"/>
     <use style="fill:#ff0000;opacity:0.5;stroke:#ff0000;" x="87.360423" xlink:href="#me9a279d124" y="266.036328"/>
     <use style="fill:#ff0000;opacity:0.5;stroke:#ff0000;" x="87.360418" xlink:href="#me9a279d124" y="266.036328"/>
     <use style="fill:#ff0000;opacity:0.5;stroke:#ff0000;" x="87.360413" xlink:href="#me9a279d124" y="266.036328"/>
     <use style="fill:#ff0000;opacity:0.5;stroke:#ff0000;" x="87.360407" xlink:href="#me9a279d124" y="266.036328"/>
     <use style="fill:#ff0000;opacity:0.5;stroke:#ff0000;" x="87.360402" xlink:href="#me9a279d124" y="266.036328"/>
     <use style="fill:#ff0000;opacity:0.5;stroke:#ff0000;" x="87.360397" xlink:href="#me9a279d124" y="266.036328"/>
     <use style="fill:#ff0000;opacity:0.5;stroke:#ff0000;" x="87.360392" xlink:href="#me9a279d124" y="266.036328"/>
    </g>
   </g>
   <g id="line2d_14">
    <path clip-path="url(#p9a81a70afc)" d="M 309.242169 64.447575 
L 126.583597 67.375805 
L 101.593748 67.375805 
L 94.293818 77.331787 
L 89.876195 77.331787 
L 89.071502 97.302321 
L 88.585737 102.975982 
L 87.662554 102.975982 
L 87.521414 151.415019 
L 87.413484 151.415019 
L 87.360392 285.408 
L 87.360392 285.408 
" style="fill:none;opacity:0.5;stroke:#0000ff;stroke-linecap:square;stroke-width:1.5;"/>
    <defs>
     <path d="M -3 3 
L 3 -3 
M -3 -3 
L 3 3 
" id="m8b056618b0" style="stroke:#0000ff;"/>
    </defs>
    <g clip-path="url(#p9a81a70afc)">
     <use style="fill:#0000ff;opacity:0.5;stroke:#0000ff;" x="309.242169" xlink:href="#m8b056618b0" y="64.447575"/>
     <use style="fill:#0000ff;opacity:0.5;stroke:#0000ff;" x="126.583597" xlink:href="#m8b056618b0" y="67.375805"/>
     <use style="fill:#0000ff;opacity:0.5;stroke:#0000ff;" x="101.593748" xlink:href="#m8b056618b0" y="67.375805"/>
     <use style="fill:#0000ff;opacity:0.5;stroke:#0000ff;" x="94.293818" xlink:href="#m8b056618b0" y="77.331787"/>
     <use style="fill:#0000ff;opacity:0.5;stroke:#0000ff;" x="91.329149" xlink:href="#m8b056618b0" y="77.331787"/>
     <use style="fill:#0000ff;opacity:0.5;stroke:#0000ff;" x="89.876195" xlink:href="#m8b056618b0" y="77.331787"/>
     <use style="fill:#0000ff;opacity:0.5;stroke:#0000ff;" x="89.071502" xlink:href="#m8b056618b0" y="97.302321"/>
     <use style="fill:#0000ff;opacity:0.5;stroke:#0000ff;" x="88.585737" xlink:href="#m8b056618b0" y="102.975982"/>
     <use style="fill:#0000ff;opacity:0.5;stroke:#0000ff;" x="88.273095" xlink:href="#m8b056618b0" y="102.975982"/>
     <use style="fill:#0000ff;opacity:0.5;stroke:#0000ff;" x="88.061653" xlink:href="#m8b056618b0" y="102.975982"/>
     <use style="fill:#0000ff;opacity:0.5;stroke:#0000ff;" x="87.912892" xlink:href="#m8b056618b0" y="102.975982"/>
     <use style="fill:#0000ff;opacity:0.5;stroke:#0000ff;" x="87.804805" xlink:href="#m8b056618b0" y="102.975982"/>
     <use style="fill:#0000ff;opacity:0.5;stroke:#0000ff;" x="87.724136" xlink:href="#m8b056618b0" y="102.975982"/>
     <use style="fill:#0000ff;opacity:0.5;stroke:#0000ff;" x="87.662554" xlink:href="#m8b056618b0" y="102.975982"/>
     <use style="fill:#0000ff;opacity:0.5;stroke:#0000ff;" x="87.614621" xlink:href="#m8b056618b0" y="151.415019"/>
     <use style="fill:#0000ff;opacity:0.5;stroke:#0000ff;" x="87.576682" xlink:href="#m8b056618b0" y="151.415019"/>
     <use style="fill:#0000ff;opacity:0.5;stroke:#0000ff;" x="87.546209" xlink:href="#m8b056618b0" y="151.415019"/>
     <use style="fill:#0000ff;opacity:0.5;stroke:#0000ff;" x="87.521414" xlink:href="#m8b056618b0" y="151.415019"/>
     <use style="fill:#0000ff;opacity:0.5;stroke:#0000ff;" x="87.501006" xlink:href="#m8b056618b0" y="151.415019"/>
     <use style="fill:#0000ff;opacity:0.5;stroke:#0000ff;" x="87.484036" xlink:href="#m8b056618b0" y="151.415019"/>
     <use style="fill:#0000ff;opacity:0.5;stroke:#0000ff;" x="87.469793" xlink:href="#m8b056618b0" y="151.415019"/>
     <use style="fill:#0000ff;opacity:0.5;stroke:#0000ff;" x="87.457739" xlink:href="#m8b056618b0" y="151.415019"/>
     <use style="fill:#0000ff;opacity:0.5;stroke:#0000ff;" x="87.447459" xlink:href="#m8b056618b0" y="151.415019"/>
     <use style="fill:#0000ff;opacity:0.5;stroke:#0000ff;" x="87.438631" xlink:href="#m8b056618b0" y="151.415019"/>
     <use style="fill:#0000ff;opacity:0.5;stroke:#0000ff;" x="87.431002" xlink:href="#m8b056618b0" y="151.415019"/>
     <use style="fill:#0000ff;opacity:0.5;stroke:#0000ff;" x="87.424371" xlink:href="#m8b056618b0" y="151.415019"/>
     <use style="fill:#0000ff;opacity:0.5;stroke:#0000ff;" x="87.418575" xlink:href="#m8b056618b0" y="151.415019"/>
     <use style="fill:#0000ff;opacity:0.5;stroke:#0000ff;" x="87.413484" xlink:href="#m8b056618b0" y="151.415019"/>
     <use style="fill:#0000ff;opacity:0.5;stroke:#0000ff;" x="87.408992" xlink:href="#m8b056618b0" y="214.758374"/>
     <use style="fill:#0000ff;opacity:0.5;stroke:#0000ff;" x="87.405011" xlink:href="#m8b056618b0" y="214.758374"/>
     <use style="fill:#0000ff;opacity:0.5;stroke:#0000ff;" x="87.401468" xlink:href="#m8b056618b0" y="214.758374"/>
     <use style="fill:#0000ff;opacity:0.5;stroke:#0000ff;" x="87.398304" xlink:href="#m8b056618b0" y="214.758374"/>
     <use style="fill:#0000ff;opacity:0.5;stroke:#0000ff;" x="87.395468" xlink:href="#m8b056618b0" y="214.758374"/>
     <use style="fill:#0000ff;opacity:0.5;stroke:#0000ff;" x="87.392917" xlink:href="#m8b056618b0" y="214.758374"/>
     <use style="fill:#0000ff;opacity:0.5;stroke:#0000ff;" x="87.390616" xlink:href="#m8b056618b0" y="214.758374"/>
     <use style="fill:#0000ff;opacity:0.5;stroke:#0000ff;" x="87.388534" xlink:href="#m8b056618b0" y="214.758374"/>
     <use style="fill:#0000ff;opacity:0.5;stroke:#0000ff;" x="87.386645" xlink:href="#m8b056618b0" y="214.758374"/>
     <use style="fill:#0000ff;opacity:0.5;stroke:#0000ff;" x="87.384927" xlink:href="#m8b056618b0" y="214.758374"/>
     <use style="fill:#0000ff;opacity:0.5;stroke:#0000ff;" x="87.383359" xlink:href="#m8b056618b0" y="214.758374"/>
     <use style="fill:#0000ff;opacity:0.5;stroke:#0000ff;" x="87.381927" xlink:href="#m8b056618b0" y="214.758374"/>
     <use style="fill:#0000ff;opacity:0.5;stroke:#0000ff;" x="87.380614" xlink:href="#m8b056618b0" y="214.758374"/>
     <use style="fill:#0000ff;opacity:0.5;stroke:#0000ff;" x="87.379409" xlink:href="#m8b056618b0" y="214.758374"/>
     <use style="fill:#0000ff;opacity:0.5;stroke:#0000ff;" x="87.3783" xlink:href="#m8b056618b0" y="214.758374"/>
     <use style="fill:#0000ff;opacity:0.5;stroke:#0000ff;" x="87.377278" xlink:href="#m8b056618b0" y="214.758374"/>
     <use style="fill:#0000ff;opacity:0.5;stroke:#0000ff;" x="87.376334" xlink:href="#m8b056618b0" y="214.758374"/>
     <use style="fill:#0000ff;opacity:0.5;stroke:#0000ff;" x="87.375461" xlink:href="#m8b056618b0" y="214.758374"/>
     <use style="fill:#0000ff;opacity:0.5;stroke:#0000ff;" x="87.374651" xlink:href="#m8b056618b0" y="214.758374"/>
     <use style="fill:#0000ff;opacity:0.5;stroke:#0000ff;" x="87.3739" xlink:href="#m8b056618b0" y="214.758374"/>
     <use style="fill:#0000ff;opacity:0.5;stroke:#0000ff;" x="87.373202" xlink:href="#m8b056618b0" y="214.758374"/>
     <use style="fill:#0000ff;opacity:0.5;stroke:#0000ff;" x="87.372552" xlink:href="#m8b056618b0" y="214.758374"/>
     <use style="fill:#0000ff;opacity:0.5;stroke:#0000ff;" x="87.371945" xlink:href="#m8b056618b0" y="214.758374"/>
     <use style="fill:#0000ff;opacity:0.5;stroke:#0000ff;" x="87.371379" xlink:href="#m8b056618b0" y="214.758374"/>
     <use style="fill:#0000ff;opacity:0.5;stroke:#0000ff;" x="87.37085" xlink:href="#m8b056618b0" y="214.758374"/>
     <use style="fill:#0000ff;opacity:0.5;stroke:#0000ff;" x="87.370355" xlink:href="#m8b056618b0" y="214.758374"/>
     <use style="fill:#0000ff;opacity:0.5;stroke:#0000ff;" x="87.36989" xlink:href="#m8b056618b0" y="214.758374"/>
     <use style="fill:#0000ff;opacity:0.5;stroke:#0000ff;" x="87.369455" xlink:href="#m8b056618b0" y="214.758374"/>
     <use style="fill:#0000ff;opacity:0.5;stroke:#0000ff;" x="87.369046" xlink:href="#m8b056618b0" y="266.036328"/>
     <use style="fill:#0000ff;opacity:0.5;stroke:#0000ff;" x="87.368661" xlink:href="#m8b056618b0" y="266.036328"/>
     <use style="fill:#0000ff;opacity:0.5;stroke:#0000ff;" x="87.368298" xlink:href="#m8b056618b0" y="266.036328"/>
     <use style="fill:#0000ff;opacity:0.5;stroke:#0000ff;" x="87.367957" xlink:href="#m8b056618b0" y="266.036328"/>
     <use style="fill:#0000ff;opacity:0.5;stroke:#0000ff;" x="87.367635" xlink:href="#m8b056618b0" y="266.036328"/>
     <use style="fill:#0000ff;opacity:0.5;stroke:#0000ff;" x="87.367331" xlink:href="#m8b056618b0" y="266.036328"/>
     <use style="fill:#0000ff;opacity:0.5;stroke:#0000ff;" x="87.367043" xlink:href="#m8b056618b0" y="266.036328"/>
     <use style="fill:#0000ff;opacity:0.5;stroke:#0000ff;" x="87.366771" xlink:href="#m8b056618b0" y="266.036328"/>
     <use style="fill:#0000ff;opacity:0.5;stroke:#0000ff;" x="87.366514" xlink:href="#m8b056618b0" y="266.036328"/>
     <use style="fill:#0000ff;opacity:0.5;stroke:#0000ff;" x="87.36627" xlink:href="#m8b056618b0" y="266.036328"/>
     <use style="fill:#0000ff;opacity:0.5;stroke:#0000ff;" x="87.366039" xlink:href="#m8b056618b0" y="266.036328"/>
     <use style="fill:#0000ff;opacity:0.5;stroke:#0000ff;" x="87.365819" xlink:href="#m8b056618b0" y="266.036328"/>
     <use style="fill:#0000ff;opacity:0.5;stroke:#0000ff;" x="87.36561" xlink:href="#m8b056618b0" y="266.036328"/>
     <use style="fill:#0000ff;opacity:0.5;stroke:#0000ff;" x="87.365412" xlink:href="#m8b056618b0" y="266.036328"/>
     <use style="fill:#0000ff;opacity:0.5;stroke:#0000ff;" x="87.365224" xlink:href="#m8b056618b0" y="266.036328"/>
     <use style="fill:#0000ff;opacity:0.5;stroke:#0000ff;" x="87.365044" xlink:href="#m8b056618b0" y="266.036328"/>
     <use style="fill:#0000ff;opacity:0.5;stroke:#0000ff;" x="87.364873" xlink:href="#m8b056618b0" y="266.036328"/>
     <use style="fill:#0000ff;opacity:0.5;stroke:#0000ff;" x="87.36471" xlink:href="#m8b056618b0" y="266.036328"/>
     <use style="fill:#0000ff;opacity:0.5;stroke:#0000ff;" x="87.364555" xlink:href="#m8b056618b0" y="266.036328"/>
     <use style="fill:#0000ff;opacity:0.5;stroke:#0000ff;" x="87.364406" xlink:href="#m8b056618b0" y="266.036328"/>
     <use style="fill:#0000ff;opacity:0.5;stroke:#0000ff;" x="87.364265" xlink:href="#m8b056618b0" y="266.036328"/>
     <use style="fill:#0000ff;opacity:0.5;stroke:#0000ff;" x="87.364129" xlink:href="#m8b056618b0" y="266.036328"/>
     <use style="fill:#0000ff;opacity:0.5;stroke:#0000ff;" x="87.364" xlink:href="#m8b056618b0" y="266.036328"/>
     <use style="fill:#0000ff;opacity:0.5;stroke:#0000ff;" x="87.363876" xlink:href="#m8b056618b0" y="266.036328"/>
     <use style="fill:#0000ff;opacity:0.5;stroke:#0000ff;" x="87.363758" xlink:href="#m8b056618b0" y="266.036328"/>
     <use style="fill:#0000ff;opacity:0.5;stroke:#0000ff;" x="87.363644" xlink:href="#m8b056618b0" y="266.036328"/>
     <use style="fill:#0000ff;opacity:0.5;stroke:#0000ff;" x="87.363535" xlink:href="#m8b056618b0" y="266.036328"/>
     <use style="fill:#0000ff;opacity:0.5;stroke:#0000ff;" x="87.363431" xlink:href="#m8b056618b0" y="266.036328"/>
     <use style="fill:#0000ff;opacity:0.5;stroke:#0000ff;" x="87.363331" xlink:href="#m8b056618b0" y="266.036328"/>
     <use style="fill:#0000ff;opacity:0.5;stroke:#0000ff;" x="87.363235" xlink:href="#m8b056618b0" y="266.036328"/>
     <use style="fill:#0000ff;opacity:0.5;stroke:#0000ff;" x="87.363143" xlink:href="#m8b056618b0" y="266.036328"/>
     <use style="fill:#0000ff;opacity:0.5;stroke:#0000ff;" x="87.363054" xlink:href="#m8b056618b0" y="266.036328"/>
     <use style="fill:#0000ff;opacity:0.5;stroke:#0000ff;" x="87.362969" xlink:href="#m8b056618b0" y="266.036328"/>
     <use style="fill:#0000ff;opacity:0.5;stroke:#0000ff;" x="87.362887" xlink:href="#m8b056618b0" y="266.036328"/>
     <use style="fill:#0000ff;opacity:0.5;stroke:#0000ff;" x="87.362809" xlink:href="#m8b056618b0" y="266.036328"/>
     <use style="fill:#0000ff;opacity:0.5;stroke:#0000ff;" x="87.362733" xlink:href="#m8b056618b0" y="266.036328"/>
     <use style="fill:#0000ff;opacity:0.5;stroke:#0000ff;" x="87.36266" xlink:href="#m8b056618b0" y="266.036328"/>
     <use style="fill:#0000ff;opacity:0.5;stroke:#0000ff;" x="87.36259" xlink:href="#m8b056618b0" y="266.036328"/>
     <use style="fill:#0000ff;opacity:0.5;stroke:#0000ff;" x="87.362522" xlink:href="#m8b056618b0" y="266.036328"/>
     <use style="fill:#0000ff;opacity:0.5;stroke:#0000ff;" x="87.362457" xlink:href="#m8b056618b0" y="266.036328"/>
     <use style="fill:#0000ff;opacity:0.5;stroke:#0000ff;" x="87.362394" xlink:href="#m8b056618b0" y="266.036328"/>
     <use style="fill:#0000ff;opacity:0.5;stroke:#0000ff;" x="87.362334" xlink:href="#m8b056618b0" y="266.036328"/>
     <use style="fill:#0000ff;opacity:0.5;stroke:#0000ff;" x="87.362275" xlink:href="#m8b056618b0" y="266.036328"/>
     <use style="fill:#0000ff;opacity:0.5;stroke:#0000ff;" x="87.362219" xlink:href="#m8b056618b0" y="266.036328"/>
     <use style="fill:#0000ff;opacity:0.5;stroke:#0000ff;" x="87.362164" xlink:href="#m8b056618b0" y="266.036328"/>
     <use style="fill:#0000ff;opacity:0.5;stroke:#0000ff;" x="87.362112" xlink:href="#m8b056618b0" y="266.036328"/>
     <use style="fill:#0000ff;opacity:0.5;stroke:#0000ff;" x="87.362061" xlink:href="#m8b056618b0" y="266.036328"/>
     <use style="fill:#0000ff;opacity:0.5;stroke:#0000ff;" x="87.362012" xlink:href="#m8b056618b0" y="266.036328"/>
     <use style="fill:#0000ff;opacity:0.5;stroke:#0000ff;" x="87.361964" xlink:href="#m8b056618b0" y="266.036328"/>
     <use style="fill:#0000ff;opacity:0.5;stroke:#0000ff;" x="87.361918" xlink:href="#m8b056618b0" y="266.036328"/>
     <use style="fill:#0000ff;opacity:0.5;stroke:#0000ff;" x="87.361874" xlink:href="#m8b056618b0" y="266.036328"/>
     <use style="fill:#0000ff;opacity:0.5;stroke:#0000ff;" x="87.36183" xlink:href="#m8b056618b0" y="266.036328"/>
     <use style="fill:#0000ff;opacity:0.5;stroke:#0000ff;" x="87.361789" xlink:href="#m8b056618b0" y="266.036328"/>
     <use style="fill:#0000ff;opacity:0.5;stroke:#0000ff;" x="87.361748" xlink:href="#m8b056618b0" y="266.036328"/>
     <use style="fill:#0000ff;opacity:0.5;stroke:#0000ff;" x="87.361709" xlink:href="#m8b056618b0" y="266.036328"/>
     <use style="fill:#0000ff;opacity:0.5;stroke:#0000ff;" x="87.361671" xlink:href="#m8b056618b0" y="266.036328"/>
     <use style="fill:#0000ff;opacity:0.5;stroke:#0000ff;" x="87.361635" xlink:href="#m8b056618b0" y="285.408"/>
     <use style="fill:#0000ff;opacity:0.5;stroke:#0000ff;" x="87.361599" xlink:href="#m8b056618b0" y="285.408"/>
     <use style="fill:#0000ff;opacity:0.5;stroke:#0000ff;" x="87.361565" xlink:href="#m8b056618b0" y="285.408"/>
     <use style="fill:#0000ff;opacity:0.5;stroke:#0000ff;" x="87.361531" xlink:href="#m8b056618b0" y="285.408"/>
     <use style="fill:#0000ff;opacity:0.5;stroke:#0000ff;" x="87.361499" xlink:href="#m8b056618b0" y="285.408"/>
     <use style="fill:#0000ff;opacity:0.5;stroke:#0000ff;" x="87.361467" xlink:href="#m8b056618b0" y="285.408"/>
     <use style="fill:#0000ff;opacity:0.5;stroke:#0000ff;" x="87.361436" xlink:href="#m8b056618b0" y="285.408"/>
     <use style="fill:#0000ff;opacity:0.5;stroke:#0000ff;" x="87.361407" xlink:href="#m8b056618b0" y="285.408"/>
     <use style="fill:#0000ff;opacity:0.5;stroke:#0000ff;" x="87.361378" xlink:href="#m8b056618b0" y="285.408"/>
     <use style="fill:#0000ff;opacity:0.5;stroke:#0000ff;" x="87.36135" xlink:href="#m8b056618b0" y="285.408"/>
     <use style="fill:#0000ff;opacity:0.5;stroke:#0000ff;" x="87.361322" xlink:href="#m8b056618b0" y="285.408"/>
     <use style="fill:#0000ff;opacity:0.5;stroke:#0000ff;" x="87.361296" xlink:href="#m8b056618b0" y="285.408"/>
     <use style="fill:#0000ff;opacity:0.5;stroke:#0000ff;" x="87.36127" xlink:href="#m8b056618b0" y="285.408"/>
     <use style="fill:#0000ff;opacity:0.5;stroke:#0000ff;" x="87.361245" xlink:href="#m8b056618b0" y="285.408"/>
     <use style="fill:#0000ff;opacity:0.5;stroke:#0000ff;" x="87.361221" xlink:href="#m8b056618b0" y="285.408"/>
     <use style="fill:#0000ff;opacity:0.5;stroke:#0000ff;" x="87.361197" xlink:href="#m8b056618b0" y="285.408"/>
     <use style="fill:#0000ff;opacity:0.5;stroke:#0000ff;" x="87.361174" xlink:href="#m8b056618b0" y="285.408"/>
     <use style="fill:#0000ff;opacity:0.5;stroke:#0000ff;" x="87.361152" xlink:href="#m8b056618b0" y="285.408"/>
     <use style="fill:#0000ff;opacity:0.5;stroke:#0000ff;" x="87.36113" xlink:href="#m8b056618b0" y="285.408"/>
     <use style="fill:#0000ff;opacity:0.5;stroke:#0000ff;" x="87.361108" xlink:href="#m8b056618b0" y="285.408"/>
     <use style="fill:#0000ff;opacity:0.5;stroke:#0000ff;" x="87.361088" xlink:href="#m8b056618b0" y="285.408"/>
     <use style="fill:#0000ff;opacity:0.5;stroke:#0000ff;" x="87.361067" xlink:href="#m8b056618b0" y="285.408"/>
     <use style="fill:#0000ff;opacity:0.5;stroke:#0000ff;" x="87.361048" xlink:href="#m8b056618b0" y="285.408"/>
     <use style="fill:#0000ff;opacity:0.5;stroke:#0000ff;" x="87.361029" xlink:href="#m8b056618b0" y="285.408"/>
     <use style="fill:#0000ff;opacity:0.5;stroke:#0000ff;" x="87.36101" xlink:href="#m8b056618b0" y="285.408"/>
     <use style="fill:#0000ff;opacity:0.5;stroke:#0000ff;" x="87.360992" xlink:href="#m8b056618b0" y="285.408"/>
     <use style="fill:#0000ff;opacity:0.5;stroke:#0000ff;" x="87.360974" xlink:href="#m8b056618b0" y="285.408"/>
     <use style="fill:#0000ff;opacity:0.5;stroke:#0000ff;" x="87.360957" xlink:href="#m8b056618b0" y="285.408"/>
     <use style="fill:#0000ff;opacity:0.5;stroke:#0000ff;" x="87.36094" xlink:href="#m8b056618b0" y="285.408"/>
     <use style="fill:#0000ff;opacity:0.5;stroke:#0000ff;" x="87.360923" xlink:href="#m8b056618b0" y="285.408"/>
     <use style="fill:#0000ff;opacity:0.5;stroke:#0000ff;" x="87.360907" xlink:href="#m8b056618b0" y="285.408"/>
     <use style="fill:#0000ff;opacity:0.5;stroke:#0000ff;" x="87.360892" xlink:href="#m8b056618b0" y="285.408"/>
     <use style="fill:#0000ff;opacity:0.5;stroke:#0000ff;" x="87.360876" xlink:href="#m8b056618b0" y="285.408"/>
     <use style="fill:#0000ff;opacity:0.5;stroke:#0000ff;" x="87.360861" xlink:href="#m8b056618b0" y="285.408"/>
     <use style="fill:#0000ff;opacity:0.5;stroke:#0000ff;" x="87.360847" xlink:href="#m8b056618b0" y="285.408"/>
     <use style="fill:#0000ff;opacity:0.5;stroke:#0000ff;" x="87.360833" xlink:href="#m8b056618b0" y="285.408"/>
     <use style="fill:#0000ff;opacity:0.5;stroke:#0000ff;" x="87.360819" xlink:href="#m8b056618b0" y="285.408"/>
     <use style="fill:#0000ff;opacity:0.5;stroke:#0000ff;" x="87.360805" xlink:href="#m8b056618b0" y="285.408"/>
     <use style="fill:#0000ff;opacity:0.5;stroke:#0000ff;" x="87.360792" xlink:href="#m8b056618b0" y="285.408"/>
     <use style="fill:#0000ff;opacity:0.5;stroke:#0000ff;" x="87.360779" xlink:href="#m8b056618b0" y="285.408"/>
     <use style="fill:#0000ff;opacity:0.5;stroke:#0000ff;" x="87.360766" xlink:href="#m8b056618b0" y="285.408"/>
     <use style="fill:#0000ff;opacity:0.5;stroke:#0000ff;" x="87.360754" xlink:href="#m8b056618b0" y="285.408"/>
     <use style="fill:#0000ff;opacity:0.5;stroke:#0000ff;" x="87.360742" xlink:href="#m8b056618b0" y="285.408"/>
     <use style="fill:#0000ff;opacity:0.5;stroke:#0000ff;" x="87.36073" xlink:href="#m8b056618b0" y="285.408"/>
     <use style="fill:#0000ff;opacity:0.5;stroke:#0000ff;" x="87.360718" xlink:href="#m8b056618b0" y="285.408"/>
     <use style="fill:#0000ff;opacity:0.5;stroke:#0000ff;" x="87.360707" xlink:href="#m8b056618b0" y="285.408"/>
     <use style="fill:#0000ff;opacity:0.5;stroke:#0000ff;" x="87.360696" xlink:href="#m8b056618b0" y="285.408"/>
     <use style="fill:#0000ff;opacity:0.5;stroke:#0000ff;" x="87.360685" xlink:href="#m8b056618b0" y="285.408"/>
     <use style="fill:#0000ff;opacity:0.5;stroke:#0000ff;" x="87.360675" xlink:href="#m8b056618b0" y="285.408"/>
     <use style="fill:#0000ff;opacity:0.5;stroke:#0000ff;" x="87.360664" xlink:href="#m8b056618b0" y="285.408"/>
     <use style="fill:#0000ff;opacity:0.5;stroke:#0000ff;" x="87.360654" xlink:href="#m8b056618b0" y="285.408"/>
     <use style="fill:#0000ff;opacity:0.5;stroke:#0000ff;" x="87.360644" xlink:href="#m8b056618b0" y="285.408"/>
     <use style="fill:#0000ff;opacity:0.5;stroke:#0000ff;" x="87.360634" xlink:href="#m8b056618b0" y="285.408"/>
     <use style="fill:#0000ff;opacity:0.5;stroke:#0000ff;" x="87.360625" xlink:href="#m8b056618b0" y="285.408"/>
     <use style="fill:#0000ff;opacity:0.5;stroke:#0000ff;" x="87.360616" xlink:href="#m8b056618b0" y="285.408"/>
     <use style="fill:#0000ff;opacity:0.5;stroke:#0000ff;" x="87.360607" xlink:href="#m8b056618b0" y="285.408"/>
     <use style="fill:#0000ff;opacity:0.5;stroke:#0000ff;" x="87.360598" xlink:href="#m8b056618b0" y="285.408"/>
     <use style="fill:#0000ff;opacity:0.5;stroke:#0000ff;" x="87.360589" xlink:href="#m8b056618b0" y="285.408"/>
     <use style="fill:#0000ff;opacity:0.5;stroke:#0000ff;" x="87.36058" xlink:href="#m8b056618b0" y="285.408"/>
     <use style="fill:#0000ff;opacity:0.5;stroke:#0000ff;" x="87.360572" xlink:href="#m8b056618b0" y="285.408"/>
     <use style="fill:#0000ff;opacity:0.5;stroke:#0000ff;" x="87.360564" xlink:href="#m8b056618b0" y="285.408"/>
     <use style="fill:#0000ff;opacity:0.5;stroke:#0000ff;" x="87.360556" xlink:href="#m8b056618b0" y="285.408"/>
     <use style="fill:#0000ff;opacity:0.5;stroke:#0000ff;" x="87.360548" xlink:href="#m8b056618b0" y="285.408"/>
     <use style="fill:#0000ff;opacity:0.5;stroke:#0000ff;" x="87.36054" xlink:href="#m8b056618b0" y="285.408"/>
     <use style="fill:#0000ff;opacity:0.5;stroke:#0000ff;" x="87.360532" xlink:href="#m8b056618b0" y="285.408"/>
     <use style="fill:#0000ff;opacity:0.5;stroke:#0000ff;" x="87.360525" xlink:href="#m8b056618b0" y="285.408"/>
     <use style="fill:#0000ff;opacity:0.5;stroke:#0000ff;" x="87.360518" xlink:href="#m8b056618b0" y="285.408"/>
     <use style="fill:#0000ff;opacity:0.5;stroke:#0000ff;" x="87.36051" xlink:href="#m8b056618b0" y="285.408"/>
     <use style="fill:#0000ff;opacity:0.5;stroke:#0000ff;" x="87.360503" xlink:href="#m8b056618b0" y="285.408"/>
     <use style="fill:#0000ff;opacity:0.5;stroke:#0000ff;" x="87.360497" xlink:href="#m8b056618b0" y="285.408"/>
     <use style="fill:#0000ff;opacity:0.5;stroke:#0000ff;" x="87.36049" xlink:href="#m8b056618b0" y="285.408"/>
     <use style="fill:#0000ff;opacity:0.5;stroke:#0000ff;" x="87.360483" xlink:href="#m8b056618b0" y="285.408"/>
     <use style="fill:#0000ff;opacity:0.5;stroke:#0000ff;" x="87.360477" xlink:href="#m8b056618b0" y="285.408"/>
     <use style="fill:#0000ff;opacity:0.5;stroke:#0000ff;" x="87.36047" xlink:href="#m8b056618b0" y="285.408"/>
     <use style="fill:#0000ff;opacity:0.5;stroke:#0000ff;" x="87.360464" xlink:href="#m8b056618b0" y="285.408"/>
     <use style="fill:#0000ff;opacity:0.5;stroke:#0000ff;" x="87.360458" xlink:href="#m8b056618b0" y="285.408"/>
     <use style="fill:#0000ff;opacity:0.5;stroke:#0000ff;" x="87.360452" xlink:href="#m8b056618b0" y="285.408"/>
     <use style="fill:#0000ff;opacity:0.5;stroke:#0000ff;" x="87.360446" xlink:href="#m8b056618b0" y="285.408"/>
     <use style="fill:#0000ff;opacity:0.5;stroke:#0000ff;" x="87.36044" xlink:href="#m8b056618b0" y="285.408"/>
     <use style="fill:#0000ff;opacity:0.5;stroke:#0000ff;" x="87.360434" xlink:href="#m8b056618b0" y="285.408"/>
     <use style="fill:#0000ff;opacity:0.5;stroke:#0000ff;" x="87.360429" xlink:href="#m8b056618b0" y="285.408"/>
     <use style="fill:#0000ff;opacity:0.5;stroke:#0000ff;" x="87.360423" xlink:href="#m8b056618b0" y="285.408"/>
     <use style="fill:#0000ff;opacity:0.5;stroke:#0000ff;" x="87.360418" xlink:href="#m8b056618b0" y="285.408"/>
     <use style="fill:#0000ff;opacity:0.5;stroke:#0000ff;" x="87.360413" xlink:href="#m8b056618b0" y="285.408"/>
     <use style="fill:#0000ff;opacity:0.5;stroke:#0000ff;" x="87.360407" xlink:href="#m8b056618b0" y="285.408"/>
     <use style="fill:#0000ff;opacity:0.5;stroke:#0000ff;" x="87.360402" xlink:href="#m8b056618b0" y="285.408"/>
     <use style="fill:#0000ff;opacity:0.5;stroke:#0000ff;" x="87.360397" xlink:href="#m8b056618b0" y="285.408"/>
     <use style="fill:#0000ff;opacity:0.5;stroke:#0000ff;" x="87.360392" xlink:href="#m8b056618b0" y="285.408"/>
    </g>
   </g>
   <g id="patch_3">
    <path d="M 57.6 307.584 
L 57.6 41.472 
" style="fill:none;stroke:#000000;stroke-linecap:square;stroke-linejoin:miter;stroke-width:0.8;"/>
   </g>
   <g id="patch_4">
    <path d="M 414.72 307.584 
L 414.72 41.472 
" style="fill:none;stroke:#000000;stroke-linecap:square;stroke-linejoin:miter;stroke-width:0.8;"/>
   </g>
   <g id="patch_5">
    <path d="M 57.6 307.584 
L 414.72 307.584 
" style="fill:none;stroke:#000000;stroke-linecap:square;stroke-linejoin:miter;stroke-width:0.8;"/>
   </g>
   <g id="patch_6">
    <path d="M 57.6 41.472 
L 414.72 41.472 
" style="fill:none;stroke:#000000;stroke-linecap:square;stroke-linejoin:miter;stroke-width:0.8;"/>
   </g>
   <g id="text_15">
    <!-- p_j vs f_j for (M, N, t, p) = (200, 15, 2.5, 0.15) -->
    <defs>
     <path d="M 50.984375 -16.609375 
L 50.984375 -23.578125 
L -0.984375 -23.578125 
L -0.984375 -16.609375 
z
" id="DejaVuSans-5f"/>
     <path d="M 9.421875 54.6875 
L 18.40625 54.6875 
L 18.40625 -0.984375 
Q 18.40625 -11.421875 14.421875 -16.109375 
Q 10.453125 -20.796875 1.609375 -20.796875 
L -1.8125 -20.796875 
L -1.8125 -13.1875 
L 0.59375 -13.1875 
Q 5.71875 -13.1875 7.5625 -10.8125 
Q 9.421875 -8.453125 9.421875 -0.984375 
z
M 9.421875 75.984375 
L 18.40625 75.984375 
L 18.40625 64.59375 
L 9.421875 64.59375 
z
" id="DejaVuSans-6a"/>
     <path d="M 2.984375 54.6875 
L 12.5 54.6875 
L 29.59375 8.796875 
L 46.6875 54.6875 
L 56.203125 54.6875 
L 35.6875 0 
L 23.484375 0 
z
" id="DejaVuSans-76"/>
     <path d="M 31 75.875 
Q 24.46875 64.65625 21.28125 53.65625 
Q 18.109375 42.671875 18.109375 31.390625 
Q 18.109375 20.125 21.3125 9.0625 
Q 24.515625 -2 31 -13.1875 
L 23.1875 -13.1875 
Q 15.875 -1.703125 12.234375 9.375 
Q 8.59375 20.453125 8.59375 31.390625 
Q 8.59375 42.28125 12.203125 53.3125 
Q 15.828125 64.359375 23.1875 75.875 
z
" id="DejaVuSans-28"/>
     <path d="M 11.71875 12.40625 
L 22.015625 12.40625 
L 22.015625 4 
L 14.015625 -11.625 
L 7.71875 -11.625 
L 11.71875 4 
z
" id="DejaVuSans-2c"/>
     <path d="M 9.8125 72.90625 
L 23.09375 72.90625 
L 55.421875 11.921875 
L 55.421875 72.90625 
L 64.984375 72.90625 
L 64.984375 0 
L 51.703125 0 
L 19.390625 60.984375 
L 19.390625 0 
L 9.8125 0 
z
" id="DejaVuSans-4e"/>
     <path d="M 8.015625 75.875 
L 15.828125 75.875 
Q 23.140625 64.359375 26.78125 53.3125 
Q 30.421875 42.28125 30.421875 31.390625 
Q 30.421875 20.453125 26.78125 9.375 
Q 23.140625 -1.703125 15.828125 -13.1875 
L 8.015625 -13.1875 
Q 14.5 -2 17.703125 9.0625 
Q 20.90625 20.125 20.90625 31.390625 
Q 20.90625 42.671875 17.703125 53.65625 
Q 14.5 64.65625 8.015625 75.875 
z
" id="DejaVuSans-29"/>
     <path d="M 10.59375 45.40625 
L 73.1875 45.40625 
L 73.1875 37.203125 
L 10.59375 37.203125 
z
M 10.59375 25.484375 
L 73.1875 25.484375 
L 73.1875 17.1875 
L 10.59375 17.1875 
z
" id="DejaVuSans-3d"/>
     <path d="M 10.796875 72.90625 
L 49.515625 72.90625 
L 49.515625 64.59375 
L 19.828125 64.59375 
L 19.828125 46.734375 
Q 21.96875 47.46875 24.109375 47.828125 
Q 26.265625 48.1875 28.421875 48.1875 
Q 40.625 48.1875 47.75 41.5 
Q 54.890625 34.8125 54.890625 23.390625 
Q 54.890625 11.625 47.5625 5.09375 
Q 40.234375 -1.421875 26.90625 -1.421875 
Q 22.3125 -1.421875 17.546875 -0.640625 
Q 12.796875 0.140625 7.71875 1.703125 
L 7.71875 11.625 
Q 12.109375 9.234375 16.796875 8.0625 
Q 21.484375 6.890625 26.703125 6.890625 
Q 35.15625 6.890625 40.078125 11.328125 
Q 45.015625 15.765625 45.015625 23.390625 
Q 45.015625 31 40.078125 35.4375 
Q 35.15625 39.890625 26.703125 39.890625 
Q 22.75 39.890625 18.8125 39.015625 
Q 14.890625 38.140625 10.796875 36.28125 
z
" id="DejaVuSans-35"/>
    </defs>
    <g transform="translate(99.447188 35.472)scale(0.12 -0.12)">
     <use xlink:href="#DejaVuSans-70"/>
     <use x="63.476562" xlink:href="#DejaVuSans-5f"/>
     <use x="113.476562" xlink:href="#DejaVuSans-6a"/>
     <use x="141.259766" xlink:href="#DejaVuSans-20"/>
     <use x="173.046875" xlink:href="#DejaVuSans-76"/>
     <use x="232.226562" xlink:href="#DejaVuSans-73"/>
     <use x="284.326172" xlink:href="#DejaVuSans-20"/>
     <use x="316.113281" xlink:href="#DejaVuSans-66"/>
     <use x="351.318359" xlink:href="#DejaVuSans-5f"/>
     <use x="401.318359" xlink:href="#DejaVuSans-6a"/>
     <use x="429.101562" xlink:href="#DejaVuSans-20"/>
     <use x="460.888672" xlink:href="#DejaVuSans-66"/>
     <use x="496.09375" xlink:href="#DejaVuSans-6f"/>
     <use x="557.275391" xlink:href="#DejaVuSans-72"/>
     <use x="598.388672" xlink:href="#DejaVuSans-20"/>
     <use x="630.175781" xlink:href="#DejaVuSans-28"/>
     <use x="669.189453" xlink:href="#DejaVuSans-4d"/>
     <use x="755.46875" xlink:href="#DejaVuSans-2c"/>
     <use x="787.255859" xlink:href="#DejaVuSans-20"/>
     <use x="819.042969" xlink:href="#DejaVuSans-4e"/>
     <use x="893.847656" xlink:href="#DejaVuSans-2c"/>
     <use x="925.634766" xlink:href="#DejaVuSans-20"/>
     <use x="957.421875" xlink:href="#DejaVuSans-74"/>
     <use x="996.630859" xlink:href="#DejaVuSans-2c"/>
     <use x="1028.417969" xlink:href="#DejaVuSans-20"/>
     <use x="1060.205078" xlink:href="#DejaVuSans-70"/>
     <use x="1123.681641" xlink:href="#DejaVuSans-29"/>
     <use x="1162.695312" xlink:href="#DejaVuSans-20"/>
     <use x="1194.482422" xlink:href="#DejaVuSans-3d"/>
     <use x="1278.271484" xlink:href="#DejaVuSans-20"/>
     <use x="1310.058594" xlink:href="#DejaVuSans-28"/>
     <use x="1349.072266" xlink:href="#DejaVuSans-32"/>
     <use x="1412.695312" xlink:href="#DejaVuSans-30"/>
     <use x="1476.318359" xlink:href="#DejaVuSans-30"/>
     <use x="1539.941406" xlink:href="#DejaVuSans-2c"/>
     <use x="1571.728516" xlink:href="#DejaVuSans-20"/>
     <use x="1603.515625" xlink:href="#DejaVuSans-31"/>
     <use x="1667.138672" xlink:href="#DejaVuSans-35"/>
     <use x="1730.761719" xlink:href="#DejaVuSans-2c"/>
     <use x="1762.548828" xlink:href="#DejaVuSans-20"/>
     <use x="1794.335938" xlink:href="#DejaVuSans-32"/>
     <use x="1857.958984" xlink:href="#DejaVuSans-2e"/>
     <use x="1889.746094" xlink:href="#DejaVuSans-35"/>
     <use x="1953.369141" xlink:href="#DejaVuSans-2c"/>
     <use x="1985.15625" xlink:href="#DejaVuSans-20"/>
     <use x="2016.943359" xlink:href="#DejaVuSans-30"/>
     <use x="2080.566406" xlink:href="#DejaVuSans-2e"/>
     <use x="2112.353516" xlink:href="#DejaVuSans-31"/>
     <use x="2175.976562" xlink:href="#DejaVuSans-35"/>
     <use x="2239.599609" xlink:href="#DejaVuSans-29"/>
    </g>
   </g>
   <g id="legend_1">
    <g id="patch_7">
     <path d="M 317.999687 78.82825 
L 407.72 78.82825 
Q 409.72 78.82825 409.72 76.82825 
L 409.72 48.472 
Q 409.72 46.472 407.72 46.472 
L 317.999687 46.472 
Q 315.999687 46.472 315.999687 48.472 
L 315.999687 76.82825 
Q 315.999687 78.82825 317.999687 78.82825 
z
" style="fill:#ffffff;opacity:0.8;stroke:#cccccc;stroke-linejoin:miter;"/>
    </g>
    <g id="line2d_15">
     <path d="M 319.999687 54.570437 
L 339.999687 54.570437 
" style="fill:none;opacity:0.5;stroke:#ff0000;stroke-linecap:square;stroke-width:1.5;"/>
    </g>
    <g id="line2d_16">
     <g>
      <use style="fill:#ff0000;opacity:0.5;stroke:#ff0000;" x="329.999687" xlink:href="#me9a279d124" y="54.570437"/>
     </g>
    </g>
    <g id="text_16">
     <!-- With log -->
     <defs>
      <path d="M 3.328125 72.90625 
L 13.28125 72.90625 
L 28.609375 11.28125 
L 43.890625 72.90625 
L 54.984375 72.90625 
L 70.3125 11.28125 
L 85.59375 72.90625 
L 95.609375 72.90625 
L 77.296875 0 
L 64.890625 0 
L 49.515625 63.28125 
L 33.984375 0 
L 21.578125 0 
z
" id="DejaVuSans-57"/>
      <path d="M 54.890625 33.015625 
L 54.890625 0 
L 45.90625 0 
L 45.90625 32.71875 
Q 45.90625 40.484375 42.875 44.328125 
Q 39.84375 48.1875 33.796875 48.1875 
Q 26.515625 48.1875 22.3125 43.546875 
Q 18.109375 38.921875 18.109375 30.90625 
L 18.109375 0 
L 9.078125 0 
L 9.078125 75.984375 
L 18.109375 75.984375 
L 18.109375 46.1875 
Q 21.34375 51.125 25.703125 53.5625 
Q 30.078125 56 35.796875 56 
Q 45.21875 56 50.046875 50.171875 
Q 54.890625 44.34375 54.890625 33.015625 
z
" id="DejaVuSans-68"/>
     </defs>
     <g transform="translate(347.999687 58.070437)scale(0.1 -0.1)">
      <use xlink:href="#DejaVuSans-57"/>
      <use x="98.845703" xlink:href="#DejaVuSans-69"/>
      <use x="126.628906" xlink:href="#DejaVuSans-74"/>
      <use x="165.837891" xlink:href="#DejaVuSans-68"/>
      <use x="229.216797" xlink:href="#DejaVuSans-20"/>
      <use x="261.003906" xlink:href="#DejaVuSans-6c"/>
      <use x="288.787109" xlink:href="#DejaVuSans-6f"/>
      <use x="349.96875" xlink:href="#DejaVuSans-67"/>
     </g>
    </g>
    <g id="line2d_17">
     <path d="M 319.999687 69.248562 
L 339.999687 69.248562 
" style="fill:none;opacity:0.5;stroke:#0000ff;stroke-linecap:square;stroke-width:1.5;"/>
    </g>
    <g id="line2d_18">
     <g>
      <use style="fill:#0000ff;opacity:0.5;stroke:#0000ff;" x="329.999687" xlink:href="#m8b056618b0" y="69.248562"/>
     </g>
    </g>
    <g id="text_17">
     <!-- Without log -->
     <defs>
      <path d="M 8.5 21.578125 
L 8.5 54.6875 
L 17.484375 54.6875 
L 17.484375 21.921875 
Q 17.484375 14.15625 20.5 10.265625 
Q 23.53125 6.390625 29.59375 6.390625 
Q 36.859375 6.390625 41.078125 11.03125 
Q 45.3125 15.671875 45.3125 23.6875 
L 45.3125 54.6875 
L 54.296875 54.6875 
L 54.296875 0 
L 45.3125 0 
L 45.3125 8.40625 
Q 42.046875 3.421875 37.71875 1 
Q 33.40625 -1.421875 27.6875 -1.421875 
Q 18.265625 -1.421875 13.375 4.4375 
Q 8.5 10.296875 8.5 21.578125 
z
M 31.109375 56 
z
" id="DejaVuSans-75"/>
     </defs>
     <g transform="translate(347.999687 72.748562)scale(0.1 -0.1)">
      <use xlink:href="#DejaVuSans-57"/>
      <use x="98.845703" xlink:href="#DejaVuSans-69"/>
      <use x="126.628906" xlink:href="#DejaVuSans-74"/>
      <use x="165.837891" xlink:href="#DejaVuSans-68"/>
      <use x="229.216797" xlink:href="#DejaVuSans-6f"/>
      <use x="290.398438" xlink:href="#DejaVuSans-75"/>
      <use x="353.777344" xlink:href="#DejaVuSans-74"/>
      <use x="392.986328" xlink:href="#DejaVuSans-20"/>
      <use x="424.773438" xlink:href="#DejaVuSans-6c"/>
      <use x="452.556641" xlink:href="#DejaVuSans-6f"/>
      <use x="513.738281" xlink:href="#DejaVuSans-67"/>
     </g>
    </g>
   </g>
  </g>
 </g>
 <defs>
  <clipPath id="p9a81a70afc">
   <rect height="266.112" width="357.12" x="57.6" y="41.472"/>
  </clipPath>
 </defs>
</svg>
